ano_1_semestre_2/laboratorio_de_sistemas_digitais/aula02/parte03/simulation/qsim/DisplayDemo.msim.vcd
$comment
	File created using the following command:
		vcd file DisplayDemo.msim.vcd -direction
$end
$date
	Sat Mar 26 18:40:17 2022
$end
$version
	ModelSim Version 10.5b
$end
$timescale
	1ps
$end

$scope module displaydemovhdl_vhd_vec_tst $end
$var wire 1 ! hex0 [6] $end
$var wire 1 " hex0 [5] $end
$var wire 1 # hex0 [4] $end
$var wire 1 $ hex0 [3] $end
$var wire 1 % hex0 [2] $end
$var wire 1 & hex0 [1] $end
$var wire 1 ' hex0 [0] $end
$var wire 1 ( key [0] $end
$var wire 1 ) ledg [3] $end
$var wire 1 * ledg [2] $end
$var wire 1 + ledg [1] $end
$var wire 1 , ledg [0] $end
$var wire 1 - ledr [6] $end
$var wire 1 . ledr [5] $end
$var wire 1 / ledr [4] $end
$var wire 1 0 ledr [3] $end
$var wire 1 1 ledr [2] $end
$var wire 1 2 ledr [1] $end
$var wire 1 3 ledr [0] $end
$var wire 1 4 sw [3] $end
$var wire 1 5 sw [2] $end
$var wire 1 6 sw [1] $end
$var wire 1 7 sw [0] $end

$scope module i1 $end
$var wire 1 8 gnd $end
$var wire 1 9 vcc $end
$var wire 1 : unknown $end
$var wire 1 ; devoe $end
$var wire 1 < devclrn $end
$var wire 1 = devpor $end
$var wire 1 > ww_devoe $end
$var wire 1 ? ww_devclrn $end
$var wire 1 @ ww_devpor $end
$var wire 1 A ww_sw [3] $end
$var wire 1 B ww_sw [2] $end
$var wire 1 C ww_sw [1] $end
$var wire 1 D ww_sw [0] $end
$var wire 1 E ww_key [0] $end
$var wire 1 F ww_hex0 [6] $end
$var wire 1 G ww_hex0 [5] $end
$var wire 1 H ww_hex0 [4] $end
$var wire 1 I ww_hex0 [3] $end
$var wire 1 J ww_hex0 [2] $end
$var wire 1 K ww_hex0 [1] $end
$var wire 1 L ww_hex0 [0] $end
$var wire 1 M ww_ledg [3] $end
$var wire 1 N ww_ledg [2] $end
$var wire 1 O ww_ledg [1] $end
$var wire 1 P ww_ledg [0] $end
$var wire 1 Q ww_ledr [6] $end
$var wire 1 R ww_ledr [5] $end
$var wire 1 S ww_ledr [4] $end
$var wire 1 T ww_ledr [3] $end
$var wire 1 U ww_ledr [2] $end
$var wire 1 V ww_ledr [1] $end
$var wire 1 W ww_ledr [0] $end
$var wire 1 X \hex0[0]~output_o\ $end
$var wire 1 Y \hex0[1]~output_o\ $end
$var wire 1 Z \hex0[2]~output_o\ $end
$var wire 1 [ \hex0[3]~output_o\ $end
$var wire 1 \ \hex0[4]~output_o\ $end
$var wire 1 ] \hex0[5]~output_o\ $end
$var wire 1 ^ \hex0[6]~output_o\ $end
$var wire 1 _ \ledg[0]~output_o\ $end
$var wire 1 ` \ledg[1]~output_o\ $end
$var wire 1 a \ledg[2]~output_o\ $end
$var wire 1 b \ledg[3]~output_o\ $end
$var wire 1 c \ledr[0]~output_o\ $end
$var wire 1 d \ledr[1]~output_o\ $end
$var wire 1 e \ledr[2]~output_o\ $end
$var wire 1 f \ledr[3]~output_o\ $end
$var wire 1 g \ledr[4]~output_o\ $end
$var wire 1 h \ledr[5]~output_o\ $end
$var wire 1 i \ledr[6]~output_o\ $end
$var wire 1 j \sw[3]~input_o\ $end
$var wire 1 k \sw[1]~input_o\ $end
$var wire 1 l \sw[0]~input_o\ $end
$var wire 1 m \sw[2]~input_o\ $end
$var wire 1 n \system_core|decout_n~6_combout\ $end
$var wire 1 o \key[0]~input_o\ $end
$var wire 1 p \system_core|decout_n~7_combout\ $end
$var wire 1 q \system_core|decout_n~8_combout\ $end
$var wire 1 r \system_core|decout_n~9_combout\ $end
$var wire 1 s \system_core|decout_n~10_combout\ $end
$var wire 1 t \system_core|decout_n~11_combout\ $end
$var wire 1 u \system_core|decout_n~12_combout\ $end
$var wire 1 v \system_core|decout_n[3]~2_combout\ $end
$var wire 1 w \system_core|decout_n[3]~17_combout\ $end
$var wire 1 x \system_core|decout_n~13_combout\ $end
$var wire 1 y \system_core|decout_n~14_combout\ $end
$var wire 1 z \system_core|decout_n~15_combout\ $end
$var wire 1 { \system_core|decout_n~16_combout\ $end
$var wire 1 | \system_core|decout_n[6]~5_combout\ $end
$var wire 1 } \system_core|decout_n[6]~18_combout\ $end
$upscope $end
$upscope $end
$enddefinitions $end
#0
$dumpvars
08
19
x:
1;
1<
1=
1>
1?
1@
0X
0Y
0Z
0[
0\
0]
1^
0_
0`
0a
0b
0c
0d
0e
0f
0g
0h
1i
0j
0k
0l
0m
0n
1o
0p
0q
0r
0s
0t
0u
0v
0w
0x
0y
0z
0{
1|
1}
1(
04
05
06
07
1!
0"
0#
0$
0%
0&
0'
0)
0*
0+
0,
1-
0.
0/
00
01
02
03
0A
0B
0C
0D
1E
1F
0G
0H
0I
0J
0K
0L
0M
0N
0O
0P
1Q
0R
0S
0T
0U
0V
0W
$end
#20000
17
1D
1l
1n
1v
1x
1z
1{
1y
1w
1p
1_
1P
1,
1X
1c
1[
1f
1\
1g
1]
1h
1L
1W
1I
1T
1H
1S
1G
1R
1'
1$
1#
1"
13
10
1/
1.
#40000
07
16
0D
1C
1k
0l
0n
1t
0v
0x
0|
0}
0y
0w
1u
0p
0_
1`
0P
1O
0,
1+
0X
0c
1Z
1e
0[
0f
0\
0g
0^
0i
0L
0W
1J
1U
0I
0T
0H
0S
0F
0Q
0'
1%
0$
0#
0!
03
11
00
0/
0-
#60000
17
1D
1l
0t
1x
1y
0u
1_
1P
1,
0Z
0e
1\
1g
0J
0U
1H
1S
0%
1#
01
1/
#80000
07
06
15
0D
0C
1B
1m
0k
0l
1n
1v
0z
0{
1w
1p
0_
0`
1a
0P
0O
1N
0,
0+
1*
1X
1c
1[
1f
0]
0h
1L
1W
1I
1T
0G
0R
1'
1$
0"
13
10
0.
#100000
17
1D
1l
0n
1r
0v
0w
1s
0p
1_
1P
1,
0X
0c
1Y
1d
0[
0f
0L
0W
1K
1V
0I
0T
0'
1&
0$
03
12
00
#120000
07
16
0D
1C
1k
0l
0x
0y
0_
1`
0P
1O
0,
1+
0\
0g
0H
0S
0#
0/
#140000
17
1D
1l
0r
1v
1x
1z
1|
1}
1{
1y
1w
0s
1_
1P
1,
0Y
0d
1[
1f
1\
1g
1]
1h
1^
1i
0K
0V
1I
1T
1H
1S
1G
1R
1F
1Q
0&
1$
1#
1"
1!
02
10
1/
1.
1-
#160000
07
06
05
14
0D
0C
0B
1A
1j
0m
0k
0l
0v
0x
0z
0|
0}
0{
0y
0w
0_
0`
0a
1b
0P
0O
0N
1M
0,
0+
0*
1)
0[
0f
0\
0g
0]
0h
0^
0i
0I
0T
0H
0S
0G
0R
0F
0Q
0$
0#
0"
0!
00
0/
0.
0-
#180000
17
1D
1l
1x
1y
1_
1P
1,
1\
1g
1H
1S
1#
1/
#200000
07
16
0D
1C
1k
0l
1v
0x
0y
1w
0_
1`
0P
1O
0,
1+
1[
1f
0\
0g
1I
1T
0H
0S
1$
0#
10
0/
#220000
17
1D
1l
1n
1r
0v
0w
1s
1p
1_
1P
1,
1X
1c
1Y
1d
0[
0f
1L
1W
1K
1V
0I
0T
1'
1&
0$
13
12
00
#240000
07
06
15
0D
0C
1B
1m
0k
0l
0n
1q
0r
1|
1}
1u
0p
0_
0`
1a
0P
0O
1N
0,
0+
1*
0X
0c
1Z
1e
1^
1i
0L
0W
1J
1U
1F
1Q
0'
1%
1!
03
11
1-
#260000
17
1D
1l
1n
0q
1z
0|
0}
1{
0s
0u
1p
1_
1P
1,
1X
1c
0Z
0e
0Y
0d
1]
1h
0^
0i
1L
1W
0J
0U
0K
0V
1G
1R
0F
0Q
1'
0&
0%
1"
0!
13
02
01
1.
0-
#280000
07
16
0D
1C
1k
0l
0n
1q
0z
0{
1s
1u
0p
0_
1`
0P
1O
0,
1+
0X
0c
1Z
1e
1Y
1d
0]
0h
0L
0W
1J
1U
1K
1V
0G
0R
0'
1&
1%
0"
03
12
11
0.
#300000
17
1D
1l
1v
1w
1_
1P
1,
1[
1f
1I
1T
1$
10
#320000
07
06
05
04
0D
0C
0B
0A
0j
0m
0k
0l
0q
0v
1|
1}
0w
0s
0u
0_
0`
0a
0b
0P
0O
0N
0M
0,
0+
0*
0)
0Z
0e
0Y
0d
0[
0f
1^
1i
0J
0U
0K
0V
0I
0T
1F
1Q
0&
0%
0$
1!
02
01
00
1-
#340000
17
1D
1l
1n
1v
1x
1z
1{
1y
1w
1p
1_
1P
1,
1X
1c
1[
1f
1\
1g
1]
1h
1L
1W
1I
1T
1H
1S
1G
1R
1'
1$
1#
1"
13
10
1/
1.
#360000
07
16
0D
1C
1k
0l
0n
1t
0v
0x
0|
0}
0y
0w
1u
0p
0_
1`
0P
1O
0,
1+
0X
0c
1Z
1e
0[
0f
0\
0g
0^
0i
0L
0W
1J
1U
0I
0T
0H
0S
0F
0Q
0'
1%
0$
0#
0!
03
11
00
0/
0-
#380000
17
1D
1l
0t
1x
1y
0u
1_
1P
1,
0Z
0e
1\
1g
0J
0U
1H
1S
0%
1#
01
1/
#400000
07
06
15
0D
0C
1B
1m
0k
0l
1n
1v
0z
0{
1w
1p
0_
0`
1a
0P
0O
1N
0,
0+
1*
1X
1c
1[
1f
0]
0h
1L
1W
1I
1T
0G
0R
1'
1$
0"
13
10
0.
#420000
17
1D
1l
0n
1r
0v
0w
1s
0p
1_
1P
1,
0X
0c
1Y
1d
0[
0f
0L
0W
1K
1V
0I
0T
0'
1&
0$
03
12
00
#440000
07
16
0D
1C
1k
0l
0x
0y
0_
1`
0P
1O
0,
1+
0\
0g
0H
0S
0#
0/
#460000
17
1D
1l
0r
1v
1x
1z
1|
1}
1{
1y
1w
0s
1_
1P
1,
0Y
0d
1[
1f
1\
1g
1]
1h
1^
1i
0K
0V
1I
1T
1H
1S
1G
1R
1F
1Q
0&
1$
1#
1"
1!
02
10
1/
1.
1-
#480000
07
06
05
14
0D
0C
0B
1A
1j
0m
0k
0l
0v
0x
0z
0|
0}
0{
0y
0w
0_
0`
0a
1b
0P
0O
0N
1M
0,
0+
0*
1)
0[
0f
0\
0g
0]
0h
0^
0i
0I
0T
0H
0S
0G
0R
0F
0Q
0$
0#
0"
0!
00
0/
0.
0-
#500000
17
1D
1l
1x
1y
1_
1P
1,
1\
1g
1H
1S
1#
1/
#520000
07
16
0D
1C
1k
0l
1v
0x
0y
1w
0_
1`
0P
1O
0,
1+
1[
1f
0\
0g
1I
1T
0H
0S
1$
0#
10
0/
#540000
17
1D
1l
1n
1r
0v
0w
1s
1p
1_
1P
1,
1X
1c
1Y
1d
0[
0f
1L
1W
1K
1V
0I
0T
1'
1&
0$
13
12
00
#560000
07
06
15
0D
0C
1B
1m
0k
0l
0n
1q
0r
1|
1}
1u
0p
0_
0`
1a
0P
0O
1N
0,
0+
1*
0X
0c
1Z
1e
1^
1i
0L
0W
1J
1U
1F
1Q
0'
1%
1!
03
11
1-
#580000
17
1D
1l
1n
0q
1z
0|
0}
1{
0s
0u
1p
1_
1P
1,
1X
1c
0Z
0e
0Y
0d
1]
1h
0^
0i
1L
1W
0J
0U
0K
0V
1G
1R
0F
0Q
1'
0&
0%
1"
0!
13
02
01
1.
0-
#600000
07
16
0D
1C
1k
0l
0n
1q
0z
0{
1s
1u
0p
0_
1`
0P
1O
0,
1+
0X
0c
1Z
1e
1Y
1d
0]
0h
0L
0W
1J
1U
1K
1V
0G
0R
0'
1&
1%
0"
03
12
11
0.
#620000
17
1D
1l
1v
1w
1_
1P
1,
1[
1f
1I
1T
1$
10
#640000
07
06
05
04
0(
0D
0C
0B
0A
0E
0o
0j
0m
0k
0l
0q
0v
1|
1p
1y
1{
1}
0_
0`
0a
0b
0P
0O
0N
0M
1^
1i
1]
1h
1\
1g
1X
1c
0,
0+
0*
0)
1F
1Q
1G
1R
1H
1S
1L
1W
1'
1#
1"
1!
13
1/
1.
1-
#660000
17
1D
1l
1n
1v
1x
1z
1_
1P
1,
#680000
07
16
0D
1C
1k
0l
0n
1t
0v
0x
0|
0_
1`
0P
1O
0,
1+
#700000
17
1D
1l
0t
1x
1_
1P
1,
#720000
07
06
15
0D
0C
1B
1m
0k
0l
1n
1v
0z
0_
0`
1a
0P
0O
1N
0,
0+
1*
#740000
17
1D
1l
0n
1r
0v
1_
1P
1,
#760000
07
16
0D
1C
1k
0l
0x
0_
1`
0P
1O
0,
1+
#780000
17
1D
1l
0r
1v
1x
1z
1|
1_
1P
1,
#800000
07
06
05
14
0D
0C
0B
1A
1j
0m
0k
0l
0v
0x
0z
0|
0_
0`
0a
1b
0P
0O
0N
1M
0,
0+
0*
1)
#820000
17
1D
1l
1x
1_
1P
1,
#840000
07
16
0D
1C
1k
0l
1v
0x
0_
1`
0P
1O
0,
1+
#860000
17
1D
1l
1n
1r
0v
1_
1P
1,
#880000
07
06
15
0D
0C
1B
1m
0k
0l
0n
1q
0r
1|
0_
0`
1a
0P
0O
1N
0,
0+
1*
#900000
17
1D
1l
1n
0q
1z
0|
1_
1P
1,
#920000
07
16
0D
1C
1k
0l
0n
1q
0z
0_
1`
0P
1O
0,
1+
#940000
17
1D
1l
1v
1_
1P
1,
#960000
07
06
05
04
0D
0C
0B
0A
0j
0m
0k
0l
0q
0v
1|
0_
0`
0a
0b
0P
0O
0N
0M
0,
0+
0*
0)
#980000
17
1D
1l
1n
1v
1x
1z
1_
1P
1,
