laboratorios_de_sistemas_digitais/aula04/parte01/simulation/qsim/FlipFlopD_Demo.msim.vcd
$comment
	File created using the following command:
		vcd file FlipFlopD_Demo.msim.vcd -direction
$end
$date
	Sun Apr 10 03:13:13 2022
$end
$version
	ModelSim Version 10.5b
$end
$timescale
	1ps
$end

$scope module latch1b_vhd_vec_tst $end
$var wire 1 ! clk $end
$var wire 1 " d $end
$var wire 1 # q $end

$scope module i1 $end
$var wire 1 $ gnd $end
$var wire 1 % vcc $end
$var wire 1 & unknown $end
$var wire 1 ' devoe $end
$var wire 1 ( devclrn $end
$var wire 1 ) devpor $end
$var wire 1 * ww_devoe $end
$var wire 1 + ww_devclrn $end
$var wire 1 , ww_devpor $end
$var wire 1 - ww_clk $end
$var wire 1 . ww_d $end
$var wire 1 / ww_q $end
$var wire 1 0 \q~output_o\ $end
$var wire 1 1 \d~input_o\ $end
$var wire 1 2 \clk~input_o\ $end
$var wire 1 3 \q$latch~combout\ $end
$upscope $end
$upscope $end
$enddefinitions $end
#0
$dumpvars
0!
0"
x#
0$
1%
x&
1'
1(
1)
1*
1+
1,
0-
0.
x/
x0
01
02
x3
$end
#10000
1"
1.
11
#30000
0"
0.
01
#40000
1!
1-
12
03
00
0/
0#
#50000
1"
1.
11
13
10
1/
1#
#70000
0"
0.
01
03
00
0/
0#
#80000
0!
0-
02
#120000
1!
1"
1-
1.
11
12
13
10
1/
1#
#160000
0!
0"
0-
0.
01
02
#200000
1!
1-
12
03
00
0/
0#
#240000
0!
0-
02
#270000
1"
1.
11
#280000
1!
1-
12
13
10
1/
1#
#310000
0"
0.
01
03
00
0/
0#
#320000
0!
0-
02
#350000
1"
1.
11
#360000
1!
1-
12
13
10
1/
1#
#400000
0!
0-
02
#410000
0"
0.
01
#440000
1!
1-
12
03
00
0/
0#
#470000
1"
1.
11
13
10
1/
1#
#480000
0!
0-
02
#490000
0"
0.
01
#520000
1!
1-
12
03
00
0/
0#
#530000
1"
1.
11
13
10
1/
1#
#540000
0"
0.
01
03
00
0/
0#
#560000
0!
0-
02
#590000
1"
1.
11
#600000
1!
1-
12
13
10
1/
1#
#610000
0"
0.
01
03
00
0/
0#
#640000
0!
0-
02
#660000
1"
1.
11
#670000
0"
0.
01
#680000
1!
1-
12
#720000
0!
0-
02
#750000
1"
1.
11
#760000
0"
1!
0.
1-
12
01
#800000
0!
0-
02
#820000
1"
1.
11
#840000
1!
1-
12
13
10
1/
1#
#880000
0!
0-
02
#920000
1!
1-
12
#940000
0"
0.
01
03
00
0/
0#
#960000
0!
0-
02
