laboratorios_de_sistemas_digitais/aula07/parte05/simulation/qsim/TmpDesop.msim.vcd
$comment
	File created using the following command:
		vcd file TmpDesop.msim.vcd -direction
$end
$date
	Fri May  6 18:09:08 2022
$end
$version
	ModelSim Version 10.5b
$end
$timescale
	1ps
$end

$scope module freqdivider_vhd_vec_tst $end
$var wire 1 ! clkin $end
$var wire 1 " clkout $end

$scope module i1 $end
$var wire 1 # gnd $end
$var wire 1 $ vcc $end
$var wire 1 % unknown $end
$var wire 1 & devoe $end
$var wire 1 ' devclrn $end
$var wire 1 ( devpor $end
$var wire 1 ) ww_devoe $end
$var wire 1 * ww_devclrn $end
$var wire 1 + ww_devpor $end
$var wire 1 , ww_clkin $end
$var wire 1 - ww_clkout $end
$var wire 1 . \clkout~output_o\ $end
$var wire 1 / \clkin~input_o\ $end
$var wire 1 0 \s_divcounter[0]~26_combout\ $end
$var wire 1 1 \s_divcounter[0]~27\ $end
$var wire 1 2 \s_divcounter[1]~28_combout\ $end
$var wire 1 3 \s_divcounter[1]~29\ $end
$var wire 1 4 \s_divcounter[2]~30_combout\ $end
$var wire 1 5 \s_divcounter[2]~31\ $end
$var wire 1 6 \s_divcounter[3]~32_combout\ $end
$var wire 1 7 \s_divcounter[3]~33\ $end
$var wire 1 8 \s_divcounter[4]~34_combout\ $end
$var wire 1 9 \s_divcounter[4]~35\ $end
$var wire 1 : \s_divcounter[5]~36_combout\ $end
$var wire 1 ; \s_divcounter[5]~37\ $end
$var wire 1 < \s_divcounter[6]~38_combout\ $end
$var wire 1 = \s_divcounter[6]~39\ $end
$var wire 1 > \s_divcounter[7]~40_combout\ $end
$var wire 1 ? \s_divcounter[7]~41\ $end
$var wire 1 @ \s_divcounter[8]~42_combout\ $end
$var wire 1 A \s_divcounter[8]~43\ $end
$var wire 1 B \s_divcounter[9]~44_combout\ $end
$var wire 1 C \s_divcounter[9]~45\ $end
$var wire 1 D \s_divcounter[10]~46_combout\ $end
$var wire 1 E \clkout~0_combout\ $end
$var wire 1 F \s_divcounter[10]~47\ $end
$var wire 1 G \s_divcounter[11]~48_combout\ $end
$var wire 1 H \s_divcounter[11]~49\ $end
$var wire 1 I \s_divcounter[12]~50_combout\ $end
$var wire 1 J \s_divcounter[12]~51\ $end
$var wire 1 K \s_divcounter[13]~52_combout\ $end
$var wire 1 L \s_divcounter[13]~53\ $end
$var wire 1 M \s_divcounter[14]~54_combout\ $end
$var wire 1 N \s_divcounter[14]~55\ $end
$var wire 1 O \s_divcounter[15]~56_combout\ $end
$var wire 1 P \s_divcounter[15]~57\ $end
$var wire 1 Q \s_divcounter[16]~58_combout\ $end
$var wire 1 R \s_divcounter[16]~59\ $end
$var wire 1 S \s_divcounter[17]~60_combout\ $end
$var wire 1 T \s_divcounter[17]~61\ $end
$var wire 1 U \s_divcounter[18]~62_combout\ $end
$var wire 1 V \s_divcounter[18]~63\ $end
$var wire 1 W \s_divcounter[19]~64_combout\ $end
$var wire 1 X \s_divcounter[19]~65\ $end
$var wire 1 Y \s_divcounter[20]~66_combout\ $end
$var wire 1 Z \s_divcounter[20]~67\ $end
$var wire 1 [ \s_divcounter[21]~68_combout\ $end
$var wire 1 \ \s_divcounter[21]~69\ $end
$var wire 1 ] \s_divcounter[22]~70_combout\ $end
$var wire 1 ^ \s_divcounter[22]~71\ $end
$var wire 1 _ \s_divcounter[23]~72_combout\ $end
$var wire 1 ` \s_divcounter[23]~73\ $end
$var wire 1 a \s_divcounter[24]~74_combout\ $end
$var wire 1 b \LessThan0~0_combout\ $end
$var wire 1 c \clkout~1_combout\ $end
$var wire 1 d \clkout~2_combout\ $end
$var wire 1 e \LessThan0~1_combout\ $end
$var wire 1 f \LessThan0~2_combout\ $end
$var wire 1 g \clkout~3_combout\ $end
$var wire 1 h \s_divcounter[24]~75\ $end
$var wire 1 i \s_divcounter[25]~76_combout\ $end
$var wire 1 j \LessThan0~3_combout\ $end
$var wire 1 k \LessThan0~4_combout\ $end
$var wire 1 l \LessThan0~5_combout\ $end
$var wire 1 m \LessThan0~6_combout\ $end
$var wire 1 n \clkout~4_combout\ $end
$var wire 1 o \clkout~5_combout\ $end
$var wire 1 p \clkout~6_combout\ $end
$var wire 1 q \clkout~7_combout\ $end
$var wire 1 r \clkout~8_combout\ $end
$var wire 1 s \clkout~9_combout\ $end
$var wire 1 t \clkout~reg0_q\ $end
$var wire 1 u s_divcounter [25] $end
$var wire 1 v s_divcounter [24] $end
$var wire 1 w s_divcounter [23] $end
$var wire 1 x s_divcounter [22] $end
$var wire 1 y s_divcounter [21] $end
$var wire 1 z s_divcounter [20] $end
$var wire 1 { s_divcounter [19] $end
$var wire 1 | s_divcounter [18] $end
$var wire 1 } s_divcounter [17] $end
$var wire 1 ~ s_divcounter [16] $end
$var wire 1 !! s_divcounter [15] $end
$var wire 1 "! s_divcounter [14] $end
$var wire 1 #! s_divcounter [13] $end
$var wire 1 $! s_divcounter [12] $end
$var wire 1 %! s_divcounter [11] $end
$var wire 1 &! s_divcounter [10] $end
$var wire 1 '! s_divcounter [9] $end
$var wire 1 (! s_divcounter [8] $end
$var wire 1 )! s_divcounter [7] $end
$var wire 1 *! s_divcounter [6] $end
$var wire 1 +! s_divcounter [5] $end
$var wire 1 ,! s_divcounter [4] $end
$var wire 1 -! s_divcounter [3] $end
$var wire 1 .! s_divcounter [2] $end
$var wire 1 /! s_divcounter [1] $end
$var wire 1 0! s_divcounter [0] $end
$upscope $end
$upscope $end
$enddefinitions $end
#0
$dumpvars
0!
0"
0#
1$
x%
1&
1'
1(
1)
1*
1+
0,
0-
0.
0/
10
01
02
13
04
05
06
17
08
09
0:
1;
0<
0=
0>
1?
0@
0A
0B
1C
0D
1E
0F
0G
1H
0I
0J
0K
1L
0M
0N
0O
1P
0Q
0R
0S
1T
0U
0V
0W
1X
0Y
0Z
0[
1\
0]
0^
0_
1`
0a
1b
0c
0d
1e
1f
0g
0h
0i
1j
1k
1l
0m
0n
0o
0p
0q
0r
0s
0t
0u
0v
0w
0x
0y
0z
0{
0|
0}
0~
0!!
0"!
0#!
0$!
0%!
0&!
0'!
0(!
0)!
0*!
0+!
0,!
0-!
0.!
0/!
00!
$end
#10000
1!
1,
1/
10!
00
11
12
#20000
0!
0,
0/
#30000
1!
1,
1/
00!
1/!
02
03
10
01
12
13
14
04
#40000
0!
0,
0/
#50000
1!
1,
1/
10!
00
11
02
03
14
#60000
0!
0,
0/
#70000
1!
1,
1/
00!
0/!
1.!
04
15
12
13
10
01
02
14
05
16
06
#80000
0!
0,
0/
#90000
1!
1,
1/
10!
00
11
12
#100000
0!
0,
0/
#110000
1!
1,
1/
00!
1/!
02
03
10
01
12
13
04
15
16
14
05
06
#120000
0!
0,
0/
#130000
1!
1,
1/
10!
00
11
02
03
04
15
16
#140000
0!
0,
0/
#150000
1!
1,
1/
00!
0/!
0.!
1-!
06
07
14
05
12
13
10
01
02
04
16
17
18
08
#160000
0!
0,
0/
#170000
1!
1,
1/
10!
00
11
12
#180000
0!
0,
0/
#190000
1!
1,
1/
00!
1/!
02
03
10
01
12
13
14
04
#200000
0!
0,
0/
#210000
1!
1,
1/
10!
00
11
02
03
14
#220000
0!
0,
0/
#230000
1!
1,
1/
00!
0/!
1.!
04
15
12
13
10
01
02
14
05
06
07
18
16
17
08
#240000
0!
0,
0/
#250000
1!
1,
1/
10!
00
11
12
#260000
0!
0,
0/
#270000
1!
1,
1/
00!
1/!
02
03
10
01
12
13
04
15
06
07
14
05
16
17
18
08
#280000
0!
0,
0/
#290000
1!
1,
1/
10!
00
11
1c
02
03
04
15
06
07
18
#300000
0!
0,
0/
#310000
1!
1,
1/
00!
0/!
0.!
0-!
1,!
08
19
16
17
14
05
12
13
10
01
0c
02
04
06
18
09
1:
0:
#320000
0!
0,
0/
#330000
1!
1,
1/
10!
00
11
12
#340000
0!
0,
0/
#350000
1!
1,
1/
00!
1/!
02
03
10
01
12
13
14
04
#360000
0!
0,
0/
#370000
1!
1,
1/
10!
00
11
02
03
14
#380000
0!
0,
0/
#390000
1!
1,
1/
00!
0/!
1.!
04
15
12
13
10
01
02
14
05
16
06
#400000
0!
0,
0/
#410000
1!
1,
1/
10!
00
11
12
#420000
0!
0,
0/
#430000
1!
1,
1/
00!
1/!
02
03
10
01
12
13
04
15
16
14
05
06
#440000
0!
0,
0/
#450000
1!
1,
1/
10!
00
11
02
03
04
15
16
#460000
0!
0,
0/
#470000
1!
1,
1/
00!
0/!
0.!
1-!
06
07
14
05
12
13
10
01
02
04
16
17
08
19
1:
18
09
0:
#480000
0!
0,
0/
#490000
1!
1,
1/
10!
00
11
12
#500000
0!
0,
0/
#510000
1!
1,
1/
00!
1/!
02
03
10
01
12
13
14
04
#520000
0!
0,
0/
#530000
1!
1,
1/
10!
00
11
02
03
14
#540000
0!
0,
0/
#550000
1!
1,
1/
00!
0/!
1.!
04
15
12
13
10
01
02
14
05
06
07
08
19
16
17
18
09
1:
0:
#560000
0!
0,
0/
#570000
1!
1,
1/
10!
00
11
12
#580000
0!
0,
0/
#590000
1!
1,
1/
00!
1/!
02
03
10
01
12
13
04
15
06
07
14
05
16
17
08
19
1:
18
09
0:
#600000
0!
0,
0/
#610000
1!
1,
1/
10!
00
11
1c
02
03
04
15
06
07
08
19
1:
#620000
0!
0,
0/
#630000
1!
1,
1/
00!
0/!
0.!
0-!
0,!
1+!
0:
0;
18
09
16
17
14
05
12
13
10
01
0c
02
04
06
08
1:
1;
1<
0<
#640000
0!
0,
0/
#650000
1!
1,
1/
10!
00
11
12
#660000
0!
0,
0/
#670000
1!
1,
1/
00!
1/!
02
03
10
01
12
13
14
04
#680000
0!
0,
0/
#690000
1!
1,
1/
10!
00
11
02
03
14
#700000
0!
0,
0/
#710000
1!
1,
1/
00!
0/!
1.!
04
15
12
13
10
01
02
14
05
16
06
#720000
0!
0,
0/
#730000
1!
1,
1/
10!
00
11
12
#740000
0!
0,
0/
#750000
1!
1,
1/
00!
1/!
02
03
10
01
12
13
04
15
16
14
05
06
#760000
0!
0,
0/
#770000
1!
1,
1/
10!
00
11
02
03
04
15
16
#780000
0!
0,
0/
#790000
1!
1,
1/
00!
0/!
0.!
1-!
06
07
14
05
12
13
10
01
02
04
16
17
18
08
#800000
0!
0,
0/
#810000
1!
1,
1/
10!
00
11
12
#820000
0!
0,
0/
#830000
1!
1,
1/
00!
1/!
02
03
10
01
12
13
14
04
#840000
0!
0,
0/
#850000
1!
1,
1/
10!
00
11
02
03
14
#860000
0!
0,
0/
#870000
1!
1,
1/
00!
0/!
1.!
04
15
12
13
10
01
02
14
05
06
07
18
16
17
08
#880000
0!
0,
0/
#890000
1!
1,
1/
10!
00
11
12
#900000
0!
0,
0/
#910000
1!
1,
1/
00!
1/!
02
03
10
01
12
13
04
15
06
07
14
05
16
17
18
08
#920000
0!
0,
0/
#930000
1!
1,
1/
10!
00
11
1c
02
03
04
15
06
07
18
#940000
0!
0,
0/
#950000
1!
1,
1/
00!
0/!
0.!
0-!
1,!
08
19
1d
16
17
14
05
12
13
10
01
0c
0d
02
04
06
18
09
0:
0;
1<
1:
1;
0<
#960000
0!
0,
0/
#970000
1!
1,
1/
10!
00
11
12
#980000
0!
0,
0/
#990000
1!
1,
1/
00!
1/!
02
03
10
01
12
13
14
04
#1000000
0!
0,
0/
#1010000
1!
1,
1/
10!
00
11
02
03
14
#1020000
0!
0,
0/
#1030000
1!
1,
1/
00!
0/!
1.!
04
15
12
13
10
01
02
14
05
16
06
#1040000
0!
0,
0/
#1050000
1!
1,
1/
10!
00
11
12
#1060000
0!
0,
0/
#1070000
1!
1,
1/
00!
1/!
02
03
10
01
12
13
04
15
16
14
05
06
#1080000
0!
0,
0/
#1090000
1!
1,
1/
10!
00
11
02
03
04
15
16
#1100000
0!
0,
0/
#1110000
1!
1,
1/
00!
0/!
0.!
1-!
06
07
14
05
12
13
10
01
02
04
16
17
08
19
0:
0;
18
09
1:
1;
1<
0<
#1120000
0!
0,
0/
#1130000
1!
1,
1/
10!
00
11
12
#1140000
0!
0,
0/
#1150000
1!
1,
1/
00!
1/!
02
03
10
01
12
13
14
04
#1160000
0!
0,
0/
#1170000
1!
1,
1/
10!
00
11
02
03
14
#1180000
0!
0,
0/
#1190000
1!
1,
1/
00!
0/!
1.!
04
15
12
13
10
01
02
14
05
06
07
08
19
16
17
18
09
0:
0;
1<
1:
1;
0<
#1200000
0!
0,
0/
#1210000
1!
1,
1/
10!
00
11
12
#1220000
0!
0,
0/
#1230000
1!
1,
1/
00!
1/!
02
03
10
01
12
13
04
15
06
07
14
05
16
17
08
19
0:
0;
18
09
1:
1;
1<
0<
#1240000
0!
0,
0/
#1250000
1!
1,
1/
10!
00
11
1c
1d
02
03
04
15
06
07
08
19
0:
0;
1<
#1260000
0!
0,
0/
#1270000
1!
1,
1/
00!
0/!
0.!
0-!
0,!
0+!
1*!
0<
1=
0e
1:
1;
18
09
0d
16
17
14
05
12
13
10
01
0c
02
04
06
08
1e
0:
1<
0=
1>
0>
#1280000
0!
0,
0/
#1290000
1!
1,
1/
10!
00
11
12
#1300000
0!
0,
0/
#1310000
1!
1,
1/
00!
1/!
02
03
10
01
12
13
14
04
#1320000
0!
0,
0/
#1330000
1!
1,
1/
10!
00
11
02
03
14
#1340000
0!
0,
0/
#1350000
1!
1,
1/
00!
0/!
1.!
04
15
12
13
10
01
02
14
05
16
06
#1360000
0!
0,
0/
#1370000
1!
1,
1/
10!
00
11
12
#1380000
0!
0,
0/
#1390000
1!
1,
1/
00!
1/!
02
03
10
01
12
13
04
15
16
14
05
06
#1400000
0!
0,
0/
#1410000
1!
1,
1/
10!
00
11
02
03
04
15
16
#1420000
0!
0,
0/
#1430000
1!
1,
1/
00!
0/!
0.!
1-!
06
07
14
05
12
13
10
01
02
04
16
17
18
08
#1440000
0!
0,
0/
#1450000
1!
1,
1/
10!
00
11
12
#1460000
0!
0,
0/
#1470000
1!
1,
1/
00!
1/!
02
03
10
01
12
13
14
04
#1480000
0!
0,
0/
#1490000
1!
1,
1/
10!
00
11
02
03
14
#1500000
0!
0,
0/
#1510000
1!
1,
1/
00!
0/!
1.!
04
15
12
13
10
01
02
14
05
06
07
18
16
17
08
#1520000
0!
0,
0/
#1530000
1!
1,
1/
10!
00
11
12
#1540000
0!
0,
0/
#1550000
1!
1,
1/
00!
1/!
02
03
10
01
12
13
04
15
06
07
14
05
16
17
18
08
#1560000
0!
0,
0/
#1570000
1!
1,
1/
10!
00
11
1c
02
03
04
15
06
07
18
#1580000
0!
0,
0/
#1590000
1!
1,
1/
00!
0/!
0.!
0-!
1,!
08
19
16
17
14
05
12
13
10
01
0c
02
04
06
18
09
1:
0:
#1600000
0!
0,
0/
#1610000
1!
1,
1/
10!
00
11
12
#1620000
0!
0,
0/
#1630000
1!
1,
1/
00!
1/!
02
03
10
01
12
13
14
04
#1640000
0!
0,
0/
#1650000
1!
1,
1/
10!
00
11
02
03
14
#1660000
0!
0,
0/
#1670000
1!
1,
1/
00!
0/!
1.!
04
15
12
13
10
01
02
14
05
16
06
#1680000
0!
0,
0/
#1690000
1!
1,
1/
10!
00
11
12
#1700000
0!
0,
0/
#1710000
1!
1,
1/
00!
1/!
02
03
10
01
12
13
04
15
16
14
05
06
#1720000
0!
0,
0/
#1730000
1!
1,
1/
10!
00
11
02
03
04
15
16
#1740000
0!
0,
0/
#1750000
1!
1,
1/
00!
0/!
0.!
1-!
06
07
14
05
12
13
10
01
02
04
16
17
08
19
1:
18
09
0:
#1760000
0!
0,
0/
#1770000
1!
1,
1/
10!
00
11
12
#1780000
0!
0,
0/
#1790000
1!
1,
1/
00!
1/!
02
03
10
01
12
13
14
04
#1800000
0!
0,
0/
#1810000
1!
1,
1/
10!
00
11
02
03
14
#1820000
0!
0,
0/
#1830000
1!
1,
1/
00!
0/!
1.!
04
15
12
13
10
01
02
14
05
06
07
08
19
16
17
18
09
1:
0:
#1840000
0!
0,
0/
#1850000
1!
1,
1/
10!
00
11
12
#1860000
0!
0,
0/
#1870000
1!
1,
1/
00!
1/!
02
03
10
01
12
13
04
15
06
07
14
05
16
17
08
19
1:
18
09
0:
#1880000
0!
0,
0/
#1890000
1!
1,
1/
10!
00
11
1c
02
03
04
15
06
07
08
19
1:
#1900000
0!
0,
0/
#1910000
1!
1,
1/
00!
0/!
0.!
0-!
0,!
1+!
0:
0;
18
09
16
17
14
05
12
13
10
01
0c
02
04
06
08
1:
1;
0<
1=
1>
1<
0=
0>
#1920000
0!
0,
0/
#1930000
1!
1,
1/
10!
00
11
12
#1940000
0!
0,
0/
#1950000
1!
1,
1/
00!
1/!
02
03
10
01
12
13
14
04
#1960000
0!
0,
0/
#1970000
1!
1,
1/
10!
00
11
02
03
14
#1980000
0!
0,
0/
#1990000
1!
1,
1/
00!
0/!
1.!
04
15
12
13
10
01
02
14
05
16
06
#2000000
0!
0,
0/
#2010000
1!
1,
1/
10!
00
11
12
#2020000
0!
0,
0/
#2030000
1!
1,
1/
00!
1/!
02
03
10
01
12
13
04
15
16
14
05
06
#2040000
0!
0,
0/
#2050000
1!
1,
1/
10!
00
11
02
03
04
15
16
#2060000
0!
0,
0/
#2070000
1!
1,
1/
00!
0/!
0.!
1-!
06
07
14
05
12
13
10
01
02
04
16
17
18
08
#2080000
0!
0,
0/
#2090000
1!
1,
1/
10!
00
11
12
#2100000
0!
0,
0/
#2110000
1!
1,
1/
00!
1/!
02
03
10
01
12
13
14
04
#2120000
0!
0,
0/
#2130000
1!
1,
1/
10!
00
11
02
03
14
#2140000
0!
0,
0/
#2150000
1!
1,
1/
00!
0/!
1.!
04
15
12
13
10
01
02
14
05
06
07
18
16
17
08
#2160000
0!
0,
0/
#2170000
1!
1,
1/
10!
00
11
12
#2180000
0!
0,
0/
#2190000
1!
1,
1/
00!
1/!
02
03
10
01
12
13
04
15
06
07
14
05
16
17
18
08
#2200000
0!
0,
0/
#2210000
1!
1,
1/
10!
00
11
1c
02
03
04
15
06
07
18
#2220000
0!
0,
0/
#2230000
1!
1,
1/
00!
0/!
0.!
0-!
1,!
08
19
1d
16
17
14
05
12
13
10
01
0c
0d
02
04
06
18
09
0e
0:
0;
0<
1=
1:
1;
1e
1<
0=
1>
0>
#2240000
0!
0,
0/
#2250000
1!
1,
1/
10!
00
11
12
#2260000
0!
0,
0/
#2270000
1!
1,
1/
00!
1/!
02
03
10
01
12
13
14
04
#2280000
0!
0,
0/
#2290000
1!
1,
1/
10!
00
11
02
03
14
#2300000
0!
0,
0/
#2310000
1!
1,
1/
00!
0/!
1.!
04
15
12
13
10
01
02
14
05
16
06
#2320000
0!
0,
0/
#2330000
1!
1,
1/
10!
00
11
12
#2340000
0!
0,
0/
#2350000
1!
1,
1/
00!
1/!
02
03
10
01
12
13
04
15
16
14
05
06
#2360000
0!
0,
0/
#2370000
1!
1,
1/
10!
00
11
02
03
04
15
16
#2380000
0!
0,
0/
#2390000
1!
1,
1/
00!
0/!
0.!
1-!
06
07
14
05
12
13
10
01
02
04
16
17
08
19
0:
0;
18
09
1:
1;
0<
1=
1>
1<
0=
0>
#2400000
0!
0,
0/
#2410000
1!
1,
1/
10!
00
11
12
#2420000
0!
0,
0/
#2430000
1!
1,
1/
00!
1/!
02
03
10
01
12
13
14
04
#2440000
0!
0,
0/
#2450000
1!
1,
1/
10!
00
11
02
03
14
#2460000
0!
0,
0/
#2470000
1!
1,
1/
00!
0/!
1.!
04
15
12
13
10
01
02
14
05
06
07
08
19
16
17
18
09
0:
0;
0<
1=
1:
1;
1<
0=
1>
0>
#2480000
0!
0,
0/
#2490000
1!
1,
1/
10!
00
11
12
#2500000
0!
0,
0/
#2510000
1!
1,
1/
00!
1/!
02
03
10
01
12
13
04
15
06
07
14
05
16
17
08
19
0:
0;
18
09
1:
1;
0<
1=
1>
1<
0=
0>
#2520000
0!
0,
0/
#2530000
1!
1,
1/
10!
00
11
1c
1d
02
03
04
15
0e
06
07
08
19
0:
0;
0<
1=
1>
#2540000
0!
0,
0/
#2550000
1!
1,
1/
00!
0/!
0.!
0-!
0,!
0+!
0*!
1)!
0>
0?
0E
1<
0=
1e
1:
1;
18
09
0d
16
17
14
05
12
13
10
01
0c
02
04
06
08
0:
0<
1>
1?
0e
1@
0@
#2560000
0!
0,
0/
#2570000
1!
1,
1/
10!
00
11
12
#2580000
0!
0,
0/
#2590000
1!
1,
1/
00!
1/!
02
03
10
01
12
13
14
04
#2600000
0!
0,
0/
#2610000
1!
1,
1/
10!
00
11
02
03
14
#2620000
0!
0,
0/
#2630000
1!
1,
1/
00!
0/!
1.!
04
15
12
13
10
01
02
14
05
16
06
#2640000
0!
0,
0/
#2650000
1!
1,
1/
10!
00
11
12
#2660000
0!
0,
0/
#2670000
1!
1,
1/
00!
1/!
02
03
10
01
12
13
04
15
16
14
05
06
#2680000
0!
0,
0/
#2690000
1!
1,
1/
10!
00
11
02
03
04
15
16
#2700000
0!
0,
0/
#2710000
1!
1,
1/
00!
0/!
0.!
1-!
06
07
14
05
12
13
10
01
02
04
16
17
18
08
#2720000
0!
0,
0/
#2730000
1!
1,
1/
10!
00
11
12
#2740000
0!
0,
0/
#2750000
1!
1,
1/
00!
1/!
02
03
10
01
12
13
14
04
#2760000
0!
0,
0/
#2770000
1!
1,
1/
10!
00
11
02
03
14
#2780000
0!
0,
0/
#2790000
1!
1,
1/
00!
0/!
1.!
04
15
12
13
10
01
02
14
05
06
07
18
16
17
08
#2800000
0!
0,
0/
#2810000
1!
1,
1/
10!
00
11
12
#2820000
0!
0,
0/
#2830000
1!
1,
1/
00!
1/!
02
03
10
01
12
13
04
15
06
07
14
05
16
17
18
08
#2840000
0!
0,
0/
#2850000
1!
1,
1/
10!
00
11
1c
02
03
04
15
06
07
18
#2860000
0!
0,
0/
#2870000
1!
1,
1/
00!
0/!
0.!
0-!
1,!
08
19
16
17
14
05
12
13
10
01
0c
02
04
06
18
09
1:
0:
#2880000
0!
0,
0/
#2890000
1!
1,
1/
10!
00
11
12
#2900000
0!
0,
0/
#2910000
1!
1,
1/
00!
1/!
02
03
10
01
12
13
14
04
#2920000
0!
0,
0/
#2930000
1!
1,
1/
10!
00
11
02
03
14
#2940000
0!
0,
0/
#2950000
1!
1,
1/
00!
0/!
1.!
04
15
12
13
10
01
02
14
05
16
06
#2960000
0!
0,
0/
#2970000
1!
1,
1/
10!
00
11
12
#2980000
0!
0,
0/
#2990000
1!
1,
1/
00!
1/!
02
03
10
01
12
13
04
15
16
14
05
06
#3000000
0!
0,
0/
#3010000
1!
1,
1/
10!
00
11
02
03
04
15
16
#3020000
0!
0,
0/
#3030000
1!
1,
1/
00!
0/!
0.!
1-!
06
07
14
05
12
13
10
01
02
04
16
17
08
19
1:
18
09
0:
#3040000
0!
0,
0/
#3050000
1!
1,
1/
10!
00
11
12
#3060000
0!
0,
0/
#3070000
1!
1,
1/
00!
1/!
02
03
10
01
12
13
14
04
#3080000
0!
0,
0/
#3090000
1!
1,
1/
10!
00
11
02
03
14
#3100000
0!
0,
0/
#3110000
1!
1,
1/
00!
0/!
1.!
04
15
12
13
10
01
02
14
05
06
07
08
19
16
17
18
09
1:
0:
#3120000
0!
0,
0/
#3130000
1!
1,
1/
10!
00
11
12
#3140000
0!
0,
0/
#3150000
1!
1,
1/
00!
1/!
02
03
10
01
12
13
04
15
06
07
14
05
16
17
08
19
1:
18
09
0:
#3160000
0!
0,
0/
#3170000
1!
1,
1/
10!
00
11
1c
02
03
04
15
06
07
08
19
1:
#3180000
0!
0,
0/
#3190000
1!
1,
1/
00!
0/!
0.!
0-!
0,!
1+!
0:
0;
18
09
16
17
14
05
12
13
10
01
0c
02
04
06
08
1:
1;
1<
0<
#3200000
0!
0,
0/
#3210000
1!
1,
1/
10!
00
11
12
#3220000
0!
0,
0/
#3230000
1!
1,
1/
00!
1/!
02
03
10
01
12
13
14
04
#3240000
0!
0,
0/
#3250000
1!
1,
1/
10!
00
11
02
03
14
#3260000
0!
0,
0/
#3270000
1!
1,
1/
00!
0/!
1.!
04
15
12
13
10
01
02
14
05
16
06
#3280000
0!
0,
0/
#3290000
1!
1,
1/
10!
00
11
12
#3300000
0!
0,
0/
#3310000
1!
1,
1/
00!
1/!
02
03
10
01
12
13
04
15
16
14
05
06
#3320000
0!
0,
0/
#3330000
1!
1,
1/
10!
00
11
02
03
04
15
16
#3340000
0!
0,
0/
#3350000
1!
1,
1/
00!
0/!
0.!
1-!
06
07
14
05
12
13
10
01
02
04
16
17
18
08
#3360000
0!
0,
0/
#3370000
1!
1,
1/
10!
00
11
12
#3380000
0!
0,
0/
#3390000
1!
1,
1/
00!
1/!
02
03
10
01
12
13
14
04
#3400000
0!
0,
0/
#3410000
1!
1,
1/
10!
00
11
02
03
14
#3420000
0!
0,
0/
#3430000
1!
1,
1/
00!
0/!
1.!
04
15
12
13
10
01
02
14
05
06
07
18
16
17
08
#3440000
0!
0,
0/
#3450000
1!
1,
1/
10!
00
11
12
#3460000
0!
0,
0/
#3470000
1!
1,
1/
00!
1/!
02
03
10
01
12
13
04
15
06
07
14
05
16
17
18
08
#3480000
0!
0,
0/
#3490000
1!
1,
1/
10!
00
11
1c
02
03
04
15
06
07
18
#3500000
0!
0,
0/
#3510000
1!
1,
1/
00!
0/!
0.!
0-!
1,!
08
19
1d
16
17
14
05
12
13
10
01
0c
0d
02
04
06
18
09
0:
0;
1<
1:
1;
0<
#3520000
0!
0,
0/
#3530000
1!
1,
1/
10!
00
11
12
#3540000
0!
0,
0/
#3550000
1!
1,
1/
00!
1/!
02
03
10
01
12
13
14
04
#3560000
0!
0,
0/
#3570000
1!
1,
1/
10!
00
11
02
03
14
#3580000
0!
0,
0/
#3590000
1!
1,
1/
00!
0/!
1.!
04
15
12
13
10
01
02
14
05
16
06
#3600000
0!
0,
0/
#3610000
1!
1,
1/
10!
00
11
12
#3620000
0!
0,
0/
#3630000
1!
1,
1/
00!
1/!
02
03
10
01
12
13
04
15
16
14
05
06
#3640000
0!
0,
0/
#3650000
1!
1,
1/
10!
00
11
02
03
04
15
16
#3660000
0!
0,
0/
#3670000
1!
1,
1/
00!
0/!
0.!
1-!
06
07
14
05
12
13
10
01
02
04
16
17
08
19
0:
0;
18
09
1:
1;
1<
0<
#3680000
0!
0,
0/
#3690000
1!
1,
1/
10!
00
11
12
#3700000
0!
0,
0/
#3710000
1!
1,
1/
00!
1/!
02
03
10
01
12
13
14
04
#3720000
0!
0,
0/
#3730000
1!
1,
1/
10!
00
11
02
03
14
#3740000
0!
0,
0/
#3750000
1!
1,
1/
00!
0/!
1.!
04
15
12
13
10
01
02
14
05
06
07
08
19
16
17
18
09
0:
0;
1<
1:
1;
0<
#3760000
0!
0,
0/
#3770000
1!
1,
1/
10!
00
11
12
#3780000
0!
0,
0/
#3790000
1!
1,
1/
00!
1/!
02
03
10
01
12
13
04
15
06
07
14
05
16
17
08
19
0:
0;
18
09
1:
1;
1<
0<
#3800000
0!
0,
0/
#3810000
1!
1,
1/
10!
00
11
1c
1d
02
03
04
15
06
07
08
19
0:
0;
1<
#3820000
0!
0,
0/
#3830000
1!
1,
1/
00!
0/!
0.!
0-!
0,!
0+!
1*!
0<
1=
1:
1;
18
09
0d
16
17
14
05
12
13
10
01
0c
02
04
06
08
0:
1<
0=
0>
0?
1@
1>
1?
0@
#3840000
0!
0,
0/
#3850000
1!
1,
1/
10!
00
11
12
#3860000
0!
0,
0/
#3870000
1!
1,
1/
00!
1/!
02
03
10
01
12
13
14
04
#3880000
0!
0,
0/
#3890000
1!
1,
1/
10!
00
11
02
03
14
#3900000
0!
0,
0/
#3910000
1!
1,
1/
00!
0/!
1.!
04
15
12
13
10
01
02
14
05
16
06
#3920000
0!
0,
0/
#3930000
1!
1,
1/
10!
00
11
12
#3940000
0!
0,
0/
#3950000
1!
1,
1/
00!
1/!
02
03
10
01
12
13
04
15
16
14
05
06
#3960000
0!
0,
0/
#3970000
1!
1,
1/
10!
00
11
02
03
04
15
16
#3980000
0!
0,
0/
#3990000
1!
1,
1/
00!
0/!
0.!
1-!
06
07
14
05
12
13
10
01
02
04
16
17
18
08
#4000000
0!
0,
0/
#4010000
1!
1,
1/
10!
00
11
12
#4020000
0!
0,
0/
#4030000
1!
1,
1/
00!
1/!
02
03
10
01
12
13
14
04
#4040000
0!
0,
0/
#4050000
1!
1,
1/
10!
00
11
02
03
14
#4060000
0!
0,
0/
#4070000
1!
1,
1/
00!
0/!
1.!
04
15
12
13
10
01
02
14
05
06
07
18
16
17
08
#4080000
0!
0,
0/
#4090000
1!
1,
1/
10!
00
11
12
#4100000
0!
0,
0/
#4110000
1!
1,
1/
00!
1/!
02
03
10
01
12
13
04
15
06
07
14
05
16
17
18
08
#4120000
0!
0,
0/
#4130000
1!
1,
1/
10!
00
11
1c
02
03
04
15
06
07
18
#4140000
0!
0,
0/
#4150000
1!
1,
1/
00!
0/!
0.!
0-!
1,!
08
19
16
17
14
05
12
13
10
01
0c
02
04
06
18
09
1:
0:
#4160000
0!
0,
0/
#4170000
1!
1,
1/
10!
00
11
12
#4180000
0!
0,
0/
#4190000
1!
1,
1/
00!
1/!
02
03
10
01
12
13
14
04
#4200000
0!
0,
0/
#4210000
1!
1,
1/
10!
00
11
02
03
14
#4220000
0!
0,
0/
#4230000
1!
1,
1/
00!
0/!
1.!
04
15
12
13
10
01
02
14
05
16
06
#4240000
0!
0,
0/
#4250000
1!
1,
1/
10!
00
11
12
#4260000
0!
0,
0/
#4270000
1!
1,
1/
00!
1/!
02
03
10
01
12
13
04
15
16
14
05
06
#4280000
0!
0,
0/
#4290000
1!
1,
1/
10!
00
11
02
03
04
15
16
#4300000
0!
0,
0/
