ano_1_semestre_2/laboratorio_de_sistemas_digitais/aula05/parte03/simulation/qsim/TimerN_Demo.msim.vcd
$comment
	File created using the following command:
		vcd file TimerN_Demo.msim.vcd -direction
$end
$date
	Tue Apr 12 18:30:54 2022
$end
$version
	ModelSim Version 10.5b
$end
$timescale
	1ps
$end

$scope module timern_vhd_vec_tst $end
$var wire 1 ! clock $end
$var wire 1 " enable $end
$var wire 1 # reset $end
$var wire 1 $ start $end
$var wire 1 % timerout $end

$scope module i1 $end
$var wire 1 & gnd $end
$var wire 1 ' vcc $end
$var wire 1 ( unknown $end
$var wire 1 ) devoe $end
$var wire 1 * devclrn $end
$var wire 1 + devpor $end
$var wire 1 , ww_devoe $end
$var wire 1 - ww_devclrn $end
$var wire 1 . ww_devpor $end
$var wire 1 / ww_reset $end
$var wire 1 0 ww_start $end
$var wire 1 1 ww_enable $end
$var wire 1 2 ww_clock $end
$var wire 1 3 ww_timerout $end
$var wire 1 4 \reset~input_o\ $end
$var wire 1 5 \start~input_o\ $end
$var wire 1 6 \enable~input_o\ $end
$var wire 1 7 \clock~input_o\ $end
$var wire 1 8 \timerout~output_o\ $end
$upscope $end
$upscope $end
$enddefinitions $end
#0
$dumpvars
0!
1"
0#
0$
0%
0&
1'
x(
1)
1*
1+
1,
1-
1.
0/
00
11
02
03
04
05
16
07
08
$end
#20000
1!
12
17
#40000
0!
02
07
#50000
1$
10
15
#60000
1!
12
17
#70000
0$
00
05
#80000
0!
02
07
#100000
1!
12
17
#120000
0!
02
07
#140000
1!
12
17
#160000
0!
02
07
#180000
1!
12
17
#200000
0!
02
07
#220000
1!
12
17
#240000
0!
02
07
#260000
1!
12
17
#270000
0"
01
06
#280000
0!
02
07
#300000
1!
12
17
#320000
0!
02
07
#340000
1!
12
17
#360000
0!
02
07
#380000
1!
12
17
#400000
0!
02
07
#420000
1!
12
17
#440000
0!
02
07
#460000
1!
12
17
#480000
0!
02
07
#500000
1!
12
17
#520000
0!
02
07
#540000
1!
12
17
#560000
0!
02
07
#580000
1!
12
17
#600000
0!
02
07
#620000
1!
12
17
#640000
0!
02
07
#660000
1!
12
17
#680000
0!
02
07
#700000
1!
12
17
#720000
0!
02
07
#740000
1!
12
17
#760000
0!
02
07
#780000
1!
12
17
#800000
0!
02
07
#820000
1!
12
17
#840000
0!
02
07
#860000
1!
12
17
#880000
0!
02
07
#900000
1!
12
17
#920000
0!
02
07
#940000
1!
12
17
#960000
0!
02
07
#980000
1!
12
17
