ano_1_semestre_2/laboratorios_de_sistemas_digitais/aula02/parte04/simulation/qsim/PEnc4_2Demo.msim.vcd
$comment
	File created using the following command:
		vcd file PEnc4_2Demo.msim.vcd -direction
$end
$date
	Wed Mar 23 22:03:29 2022
$end
$version
	ModelSim Version 10.5b
$end
$timescale
	1ps
$end

$scope module penc4_2_vhd_vec_tst $end
$var wire 1 ! inputport [3] $end
$var wire 1 " inputport [2] $end
$var wire 1 # inputport [1] $end
$var wire 1 $ inputport [0] $end
$var wire 1 % outpuport [1] $end
$var wire 1 & outpuport [0] $end
$var wire 1 ' validoutp $end

$scope module i1 $end
$var wire 1 ( gnd $end
$var wire 1 ) vcc $end
$var wire 1 * unknown $end
$var wire 1 + devoe $end
$var wire 1 , devclrn $end
$var wire 1 - devpor $end
$var wire 1 . ww_devoe $end
$var wire 1 / ww_devclrn $end
$var wire 1 0 ww_devpor $end
$var wire 1 1 ww_inputport [3] $end
$var wire 1 2 ww_inputport [2] $end
$var wire 1 3 ww_inputport [1] $end
$var wire 1 4 ww_inputport [0] $end
$var wire 1 5 ww_outpuport [1] $end
$var wire 1 6 ww_outpuport [0] $end
$var wire 1 7 ww_validoutp $end
$var wire 1 8 \outpuport[0]~output_o\ $end
$var wire 1 9 \outpuport[1]~output_o\ $end
$var wire 1 : \validoutp~output_o\ $end
$var wire 1 ; \inputport[3]~input_o\ $end
$var wire 1 < \inputport[1]~input_o\ $end
$var wire 1 = \inputport[2]~input_o\ $end
$var wire 1 > \outpuport~0_combout\ $end
$var wire 1 ? \Equal0~0_combout\ $end
$var wire 1 @ \inputport[0]~input_o\ $end
$var wire 1 A \Equal0~1_combout\ $end
$var wire 1 B \ALT_INV_Equal0~0_combout\ $end
$var wire 1 C \ALT_INV_Equal0~1_combout\ $end
$upscope $end
$upscope $end
$enddefinitions $end
#0
$dumpvars
1'
0(
1)
x*
1+
1,
1-
1.
1/
10
17
08
09
1:
0;
0<
0=
0>
1?
1@
0A
0B
1C
0!
0"
0#
1$
01
02
03
14
05
06
0%
0&
$end
#40000
1#
0$
04
13
1<
0@
1>
18
16
1&
#80000
1$
14
1@
#120000
0$
0#
1"
04
03
12
1=
0<
0@
0>
0?
1B
08
19
06
15
0&
1%
#160000
1$
14
1@
#200000
0$
1#
04
13
1<
0@
#240000
1$
14
1@
#280000
0$
0#
0"
1!
04
03
02
11
1;
0=
0<
0@
1>
18
16
1&
#320000
1$
14
1@
#360000
0$
1#
04
13
1<
0@
#400000
1$
14
1@
#440000
0$
0#
1"
04
03
12
1=
0<
0@
#480000
1$
14
1@
#520000
0$
1#
04
13
1<
0@
#560000
1$
14
1@
#600000
0$
0#
0"
0!
04
03
02
01
0;
0=
0<
0@
0>
1?
1A
0C
0B
08
09
0:
06
05
07
0&
0%
0'
#640000
1$
14
1@
0A
1C
1:
17
1'
#680000
0$
1#
04
13
1<
0@
1>
18
16
1&
#720000
0#
1"
03
12
1=
0<
0>
0?
1B
08
19
06
15
0&
1%
#760000
0"
1!
02
11
1;
0=
1>
18
16
1&
#800000
0!
01
0;
0>
1?
1A
0C
0B
08
09
0:
06
05
07
0&
0%
0'
#840000
1!
1"
1#
1$
14
13
12
11
1;
1=
1<
1@
1>
0?
0A
1C
1B
18
19
1:
16
15
17
1&
1%
1'
#880000
0!
0"
0#
0$
04
03
02
01
0;
0=
0<
0@
0>
1?
1A
0C
0B
08
09
0:
06
05
07
0&
0%
0'
#920000
1!
1"
1#
1$
14
13
12
11
1;
1=
1<
1@
1>
0?
0A
1C
1B
18
19
1:
16
15
17
1&
1%
1'
#960000
0!
0"
0#
0$
04
03
02
01
0;
0=
0<
0@
0>
1?
1A
0C
0B
08
09
0:
06
05
07
0&
0%
0'
