ano_1_semestre_2/laboratorios_de_sistemas_digitais/aula03/parte01/simulation/qsim/AdderDemo.msim.vcd
$comment
	File created using the following command:
		vcd file AdderDemo.msim.vcd -direction
$end
$date
	Tue Mar 29 14:51:50 2022
$end
$version
	ModelSim Version 10.5b
$end
$timescale
	1ps
$end

$scope module addsub4_vhd_vec_tst $end
$var wire 1 ! a [3] $end
$var wire 1 " a [2] $end
$var wire 1 # a [1] $end
$var wire 1 $ a [0] $end
$var wire 1 % b [3] $end
$var wire 1 & b [2] $end
$var wire 1 ' b [1] $end
$var wire 1 ( b [0] $end
$var wire 1 ) cout $end
$var wire 1 * sub $end
$var wire 1 + sum [3] $end
$var wire 1 , sum [2] $end
$var wire 1 - sum [1] $end
$var wire 1 . sum [0] $end

$scope module i1 $end
$var wire 1 / gnd $end
$var wire 1 0 vcc $end
$var wire 1 1 unknown $end
$var wire 1 2 devoe $end
$var wire 1 3 devclrn $end
$var wire 1 4 devpor $end
$var wire 1 5 ww_devoe $end
$var wire 1 6 ww_devclrn $end
$var wire 1 7 ww_devpor $end
$var wire 1 8 ww_a [3] $end
$var wire 1 9 ww_a [2] $end
$var wire 1 : ww_a [1] $end
$var wire 1 ; ww_a [0] $end
$var wire 1 < ww_b [3] $end
$var wire 1 = ww_b [2] $end
$var wire 1 > ww_b [1] $end
$var wire 1 ? ww_b [0] $end
$var wire 1 @ ww_sub $end
$var wire 1 A ww_sum [3] $end
$var wire 1 B ww_sum [2] $end
$var wire 1 C ww_sum [1] $end
$var wire 1 D ww_sum [0] $end
$var wire 1 E ww_cout $end
$var wire 1 F \sum[0]~output_o\ $end
$var wire 1 G \sum[1]~output_o\ $end
$var wire 1 H \sum[2]~output_o\ $end
$var wire 1 I \sum[3]~output_o\ $end
$var wire 1 J \cout~output_o\ $end
$var wire 1 K \a[0]~input_o\ $end
$var wire 1 L \b[0]~input_o\ $end
$var wire 1 M \adder|bit0|s~0_combout\ $end
$var wire 1 N \sub~input_o\ $end
$var wire 1 O \adder|bit0|cout~0_combout\ $end
$var wire 1 P \a[1]~input_o\ $end
$var wire 1 Q \b[1]~input_o\ $end
$var wire 1 R \adder|bit1|s~1_cout\ $end
$var wire 1 S \adder|bit1|s~2_combout\ $end
$var wire 1 T \b[2]~input_o\ $end
$var wire 1 U \s_b[2]~0_combout\ $end
$var wire 1 V \a[2]~input_o\ $end
$var wire 1 W \adder|bit1|s~3\ $end
$var wire 1 X \adder|bit1|s~4_combout\ $end
$var wire 1 Y \b[3]~input_o\ $end
$var wire 1 Z \s_b[3]~1_combout\ $end
$var wire 1 [ \a[3]~input_o\ $end
$var wire 1 \ \adder|bit1|s~5\ $end
$var wire 1 ] \adder|bit1|s~6_combout\ $end
$var wire 1 ^ \adder|bit1|s~7\ $end
$var wire 1 _ \adder|bit1|s~8_combout\ $end
$upscope $end
$upscope $end
$enddefinitions $end
#0
$dumpvars
0)
0*
0/
10
x1
12
13
14
15
16
17
0@
0E
0F
0G
0H
0I
0J
0K
0L
0M
0N
0O
0P
0Q
0R
0S
0T
0U
0V
1W
0X
0Y
0Z
0[
0\
0]
1^
0_
0!
0"
0#
0$
0%
0&
0'
0(
08
09
0:
0;
0<
0=
0>
0?
0A
0B
0C
0D
0+
0,
0-
0.
$end
#20000
1$
1;
1K
1M
1F
1D
1.
#40000
0$
1#
1(
0;
1:
1?
1L
1P
0K
1S
1G
1C
1-
#60000
1$
1;
1K
0M
1O
0S
0W
1X
0F
0D
0G
0.
0C
1H
0-
1B
1,
#80000
0$
0#
0(
1"
1'
0;
0:
19
0?
1>
1Q
0L
1V
0P
0K
1S
1W
0X
1\
0O
1R
1]
1X
0\
0]
0H
1G
0B
1C
1H
1I
1-
0,
1B
1A
0I
1,
1+
0A
0+
#100000
1$
1;
1K
1M
1F
1D
1.
#120000
0$
1#
1(
0;
1:
1?
1L
1P
0K
0S
0W
0X
1\
1]
0G
0C
0H
0-
0B
1I
0,
1A
1+
#140000
1$
1;
1K
0M
1O
1S
0F
0D
1G
0.
1C
1-
#160000
0$
0#
0(
0"
0'
1!
1&
0;
0:
09
18
0?
0>
1=
1T
0Q
0L
1[
0V
0P
0K
0S
1X
0\
0]
0^
0O
0R
1U
0X
1\
1W
1_
1]
1^
0_
1X
0\
0]
0^
0I
1H
0G
1_
1]
1^
0A
1B
0C
1I
1J
0H
0-
1,
0+
0_
1A
1E
0B
0I
1H
0J
0,
1+
1)
0A
1B
0E
1I
1J
1,
0+
0)
1A
1E
0J
1+
1)
0E
0)
#180000
1$
1;
1K
1M
1F
1D
1.
#200000
0$
1#
1(
0;
1:
1?
1L
1P
0K
1S
1G
1C
1-
#220000
1$
1;
1K
0M
1O
0S
0W
0X
1\
0F
0]
0^
0D
0G
0.
1_
0C
0H
0-
0B
0I
0,
0A
1J
0+
1E
1)
#240000
0$
0#
0(
1"
1'
0;
0:
19
0?
1>
1Q
0L
1V
0P
0K
1S
1W
1X
0O
1R
0X
1H
1G
1B
1C
0H
1-
1,
0B
0,
#260000
1$
1;
1K
1M
1F
1D
1.
#280000
0$
1#
1(
0;
1:
1?
1L
1P
0K
0S
0W
1X
0G
0C
1H
0-
1B
1,
#300000
1$
1;
1K
0M
1O
1S
0F
0D
1G
0.
1C
1-
#320000
0$
0#
0(
0"
0'
0!
0&
1%
1*
0;
0:
09
08
0?
0>
0=
1<
1@
1N
1Y
0T
0Q
0L
0[
0V
0P
0K
0S
0X
1]
1^
0_
1I
0H
0G
1A
0B
0C
0J
0-
0,
1+
0E
0)
#340000
1$
1;
1K
1M
1F
1D
1.
#360000
0$
1#
1(
0;
1:
1?
1L
1P
0K
1S
0O
0S
1G
1C
0G
1-
0C
0-
#380000
1$
1;
1K
0M
1O
1S
0F
0D
1G
0.
1C
1-
#400000
0$
0#
0(
1"
1'
0;
0:
19
0?
1>
1Q
0L
1V
0P
0K
0S
1X
0R
1S
1W
0X
1H
0G
1B
0C
1G
0-
1,
1C
0H
1-
0B
0,
#420000
1$
1;
1K
1M
1F
1D
1.
#440000
0$
1#
1(
0;
1:
1?
1L
1P
0K
0S
0W
0O
1S
1W
1X
0X
0G
0C
1H
1G
0-
1B
1C
0H
1-
1,
0B
0,
#460000
1$
1;
1K
0M
1O
0S
0W
1X
0F
0D
0G
0.
0C
1H
0-
1B
1,
#480000
0$
0#
0(
0"
0'
1!
1&
0;
0:
09
18
0?
0>
1=
1T
0Q
0L
1[
0V
0P
0K
1S
1W
0X
0]
0^
1R
0U
0S
0W
1_
0\
1]
1^
1X
0I
0H
1G
0_
0A
0B
1C
1J
0G
1-
0,
0+
1E
0C
1H
1I
1)
0-
1B
1A
0J
1,
1+
0E
0)
#500000
1$
1;
1K
1M
1F
1D
1.
#520000
0$
1#
1(
0;
1:
1?
1L
1P
0K
1S
0O
0S
1G
1C
0G
1-
0C
0-
#540000
1$
1;
1K
0M
1O
1S
0F
0D
1G
0.
1C
1-
#560000
0$
0#
0(
1"
1'
0;
0:
19
0?
1>
1Q
0L
1V
0P
0K
0S
0X
1\
0R
1S
1W
0]
0^
1_
1X
0\
0H
0G
1]
1^
0B
0C
0I
1G
0-
0,
0_
0A
1C
1H
1J
1-
0+
1B
1E
1I
1,
1)
1A
0J
1+
0E
0)
#580000
1$
1;
1K
1M
1F
1D
1.
#600000
0$
1#
1(
0;
1:
1?
1L
1P
0K
0S
0W
0O
1S
1W
0X
1\
0]
0^
1X
0\
0G
1]
1^
1_
0C
0H
1G
0-
0_
0B
1C
1H
0I
1-
0,
1B
0A
1J
1I
1,
0+
1E
1A
0J
1)
1+
0E
0)
#620000
1$
1;
1K
0M
1O
0S
0W
0X
1\
0F
0]
0^
0D
0G
0.
1_
0C
0H
0-
0B
0I
0,
0A
1J
0+
1E
1)
#640000
0$
0#
0(
0"
0'
0!
0&
0%
0*
0;
0:
09
08
0?
0>
0=
0<
0@
0N
0Y
0T
0Q
0L
0[
0V
0P
0K
1S
1W
1X
0\
1]
1^
0O
0S
0_
0]
0X
1I
1H
1G
1A
1B
1C
0H
0I
0J
0G
1-
1,
1+
0B
0A
0E
0C
0-
0,
0+
0)
#660000
1$
1;
1K
1M
1F
1D
1.
#680000
0$
1#
1(
0;
1:
1?
1L
1P
0K
1S
1G
1C
1-
#700000
1$
1;
1K
0M
1O
0S
0W
1X
0F
0D
0G
0.
0C
1H
0-
1B
1,
#720000
0$
0#
0(
1"
1'
0;
0:
19
0?
1>
1Q
0L
1V
0P
0K
1S
1W
0X
1\
0O
1R
1]
1X
0\
0]
0H
1G
0B
1C
1H
1I
1-
0,
1B
1A
0I
1,
1+
0A
0+
#740000
1$
1;
1K
1M
1F
1D
1.
#760000
0$
1#
1(
0;
1:
1?
1L
1P
0K
0S
0W
0X
1\
1]
0G
0C
0H
0-
0B
1I
0,
1A
1+
#780000
1$
1;
1K
0M
1O
1S
0F
0D
1G
0.
1C
1-
#800000
0$
0#
0(
0"
0'
1!
1&
0;
0:
09
18
0?
0>
1=
1T
0Q
0L
1[
0V
0P
0K
0S
1X
0\
0]
0^
0O
0R
1U
0X
1\
1W
1_
1]
1^
0_
1X
0\
0]
0^
0I
1H
0G
1_
1]
1^
0A
1B
0C
1I
1J
0H
0-
1,
0+
0_
1A
1E
0B
0I
1H
0J
0,
1+
1)
0A
1B
0E
1I
1J
1,
0+
0)
1A
1E
0J
1+
1)
0E
0)
#820000
1$
1;
1K
1M
1F
1D
1.
#840000
0$
1#
1(
0;
1:
1?
1L
1P
0K
1S
1G
1C
1-
#860000
1$
1;
1K
0M
1O
0S
0W
0X
1\
0F
0]
0^
0D
0G
0.
1_
0C
0H
0-
0B
0I
0,
0A
1J
0+
1E
1)
#880000
0$
0#
0(
1"
1'
0;
0:
19
0?
1>
1Q
0L
1V
0P
0K
1S
1W
1X
0O
1R
0X
1H
1G
1B
1C
0H
1-
1,
0B
0,
#900000
1$
1;
1K
1M
1F
1D
1.
#920000
0$
1#
1(
0;
1:
1?
1L
1P
0K
0S
0W
1X
0G
0C
1H
0-
1B
1,
#940000
1$
1;
1K
0M
1O
1S
0F
0D
1G
0.
1C
1-
#960000
0$
0#
0(
0"
0'
0!
0&
1%
0;
0:
09
08
0?
0>
0=
1<
1Y
0T
0Q
0L
0[
0V
0P
0K
0S
0X
1]
1^
0O
0R
0U
1Z
0]
0^
1X
0\
1W
0_
0X
1]
1^
1_
1I
0H
0G
0_
1A
0B
0C
0J
1H
0I
0-
0,
1+
0E
1B
0A
1J
1I
0H
0)
1,
0+
1E
1A
0B
0J
1)
0,
1+
0E
0)
#980000
1$
1;
1K
1M
1F
1D
1.
