laboratorios_de_sistemas_digitais/aula04/parte04/simulation/qsim/FreqDivider_Demo.msim.vcd
$comment
	File created using the following command:
		vcd file FreqDivider_Demo.msim.vcd -direction
$end
$date
	Mon Apr 11 11:55:12 2022
$end
$version
	ModelSim Version 10.5b
$end
$timescale
	1ps
$end

$scope module freqdivider_vhd_vec_tst $end
$var wire 1 ! clkin $end
$var wire 1 " clkout $end
$var wire 1 # k [31] $end
$var wire 1 $ k [30] $end
$var wire 1 % k [29] $end
$var wire 1 & k [28] $end
$var wire 1 ' k [27] $end
$var wire 1 ( k [26] $end
$var wire 1 ) k [25] $end
$var wire 1 * k [24] $end
$var wire 1 + k [23] $end
$var wire 1 , k [22] $end
$var wire 1 - k [21] $end
$var wire 1 . k [20] $end
$var wire 1 / k [19] $end
$var wire 1 0 k [18] $end
$var wire 1 1 k [17] $end
$var wire 1 2 k [16] $end
$var wire 1 3 k [15] $end
$var wire 1 4 k [14] $end
$var wire 1 5 k [13] $end
$var wire 1 6 k [12] $end
$var wire 1 7 k [11] $end
$var wire 1 8 k [10] $end
$var wire 1 9 k [9] $end
$var wire 1 : k [8] $end
$var wire 1 ; k [7] $end
$var wire 1 < k [6] $end
$var wire 1 = k [5] $end
$var wire 1 > k [4] $end
$var wire 1 ? k [3] $end
$var wire 1 @ k [2] $end
$var wire 1 A k [1] $end
$var wire 1 B k [0] $end

$scope module i1 $end
$var wire 1 C gnd $end
$var wire 1 D vcc $end
$var wire 1 E unknown $end
$var wire 1 F devoe $end
$var wire 1 G devclrn $end
$var wire 1 H devpor $end
$var wire 1 I ww_devoe $end
$var wire 1 J ww_devclrn $end
$var wire 1 K ww_devpor $end
$var wire 1 L ww_clkin $end
$var wire 1 M ww_k [31] $end
$var wire 1 N ww_k [30] $end
$var wire 1 O ww_k [29] $end
$var wire 1 P ww_k [28] $end
$var wire 1 Q ww_k [27] $end
$var wire 1 R ww_k [26] $end
$var wire 1 S ww_k [25] $end
$var wire 1 T ww_k [24] $end
$var wire 1 U ww_k [23] $end
$var wire 1 V ww_k [22] $end
$var wire 1 W ww_k [21] $end
$var wire 1 X ww_k [20] $end
$var wire 1 Y ww_k [19] $end
$var wire 1 Z ww_k [18] $end
$var wire 1 [ ww_k [17] $end
$var wire 1 \ ww_k [16] $end
$var wire 1 ] ww_k [15] $end
$var wire 1 ^ ww_k [14] $end
$var wire 1 _ ww_k [13] $end
$var wire 1 ` ww_k [12] $end
$var wire 1 a ww_k [11] $end
$var wire 1 b ww_k [10] $end
$var wire 1 c ww_k [9] $end
$var wire 1 d ww_k [8] $end
$var wire 1 e ww_k [7] $end
$var wire 1 f ww_k [6] $end
$var wire 1 g ww_k [5] $end
$var wire 1 h ww_k [4] $end
$var wire 1 i ww_k [3] $end
$var wire 1 j ww_k [2] $end
$var wire 1 k ww_k [1] $end
$var wire 1 l ww_k [0] $end
$var wire 1 m ww_clkout $end
$var wire 1 n \clkout~output_o\ $end
$var wire 1 o \clkin~input_o\ $end
$var wire 1 p \s_counter[0]~93_combout\ $end
$var wire 1 q \k[2]~input_o\ $end
$var wire 1 r \s_counter[1]~31_combout\ $end
$var wire 1 s \k[1]~input_o\ $end
$var wire 1 t \clkout~0_combout\ $end
$var wire 1 u \k[3]~input_o\ $end
$var wire 1 v \k[4]~input_o\ $end
$var wire 1 w \s_counter[1]~32\ $end
$var wire 1 x \s_counter[2]~33_combout\ $end
$var wire 1 y \s_counter[2]~34\ $end
$var wire 1 z \s_counter[3]~35_combout\ $end
$var wire 1 { \clkout~1_combout\ $end
$var wire 1 | \k[5]~input_o\ $end
$var wire 1 } \k[6]~input_o\ $end
$var wire 1 ~ \s_counter[3]~36\ $end
$var wire 1 !! \s_counter[4]~37_combout\ $end
$var wire 1 "! \s_counter[4]~38\ $end
$var wire 1 #! \s_counter[5]~39_combout\ $end
$var wire 1 $! \clkout~2_combout\ $end
$var wire 1 %! \k[7]~input_o\ $end
$var wire 1 &! \k[8]~input_o\ $end
$var wire 1 '! \s_counter[5]~40\ $end
$var wire 1 (! \s_counter[6]~41_combout\ $end
$var wire 1 )! \s_counter[6]~42\ $end
$var wire 1 *! \s_counter[7]~43_combout\ $end
$var wire 1 +! \clkout~3_combout\ $end
$var wire 1 ,! \clkout~4_combout\ $end
$var wire 1 -! \k[9]~input_o\ $end
$var wire 1 .! \k[10]~input_o\ $end
$var wire 1 /! \s_counter[7]~44\ $end
$var wire 1 0! \s_counter[8]~45_combout\ $end
$var wire 1 1! \s_counter[8]~46\ $end
$var wire 1 2! \s_counter[9]~47_combout\ $end
$var wire 1 3! \clkout~5_combout\ $end
$var wire 1 4! \k[11]~input_o\ $end
$var wire 1 5! \k[12]~input_o\ $end
$var wire 1 6! \s_counter[9]~48\ $end
$var wire 1 7! \s_counter[10]~49_combout\ $end
$var wire 1 8! \s_counter[10]~50\ $end
$var wire 1 9! \s_counter[11]~51_combout\ $end
$var wire 1 :! \clkout~6_combout\ $end
$var wire 1 ;! \k[13]~input_o\ $end
$var wire 1 <! \k[14]~input_o\ $end
$var wire 1 =! \s_counter[11]~52\ $end
$var wire 1 >! \s_counter[12]~53_combout\ $end
$var wire 1 ?! \s_counter[12]~54\ $end
$var wire 1 @! \s_counter[13]~55_combout\ $end
$var wire 1 A! \clkout~7_combout\ $end
$var wire 1 B! \k[15]~input_o\ $end
$var wire 1 C! \k[16]~input_o\ $end
$var wire 1 D! \s_counter[13]~56\ $end
$var wire 1 E! \s_counter[14]~57_combout\ $end
$var wire 1 F! \s_counter[14]~58\ $end
$var wire 1 G! \s_counter[15]~59_combout\ $end
$var wire 1 H! \clkout~8_combout\ $end
$var wire 1 I! \clkout~9_combout\ $end
$var wire 1 J! \k[17]~input_o\ $end
$var wire 1 K! \k[18]~input_o\ $end
$var wire 1 L! \s_counter[15]~60\ $end
$var wire 1 M! \s_counter[16]~61_combout\ $end
$var wire 1 N! \s_counter[16]~62\ $end
$var wire 1 O! \s_counter[17]~63_combout\ $end
$var wire 1 P! \clkout~10_combout\ $end
$var wire 1 Q! \k[19]~input_o\ $end
$var wire 1 R! \k[20]~input_o\ $end
$var wire 1 S! \s_counter[17]~64\ $end
$var wire 1 T! \s_counter[18]~65_combout\ $end
$var wire 1 U! \s_counter[18]~66\ $end
$var wire 1 V! \s_counter[19]~67_combout\ $end
$var wire 1 W! \clkout~11_combout\ $end
$var wire 1 X! \k[21]~input_o\ $end
$var wire 1 Y! \k[22]~input_o\ $end
$var wire 1 Z! \s_counter[19]~68\ $end
$var wire 1 [! \s_counter[20]~69_combout\ $end
$var wire 1 \! \s_counter[20]~70\ $end
$var wire 1 ]! \s_counter[21]~71_combout\ $end
$var wire 1 ^! \clkout~12_combout\ $end
$var wire 1 _! \k[23]~input_o\ $end
$var wire 1 `! \k[24]~input_o\ $end
$var wire 1 a! \s_counter[21]~72\ $end
$var wire 1 b! \s_counter[22]~73_combout\ $end
$var wire 1 c! \s_counter[22]~74\ $end
$var wire 1 d! \s_counter[23]~75_combout\ $end
$var wire 1 e! \clkout~13_combout\ $end
$var wire 1 f! \clkout~14_combout\ $end
$var wire 1 g! \k[25]~input_o\ $end
$var wire 1 h! \k[26]~input_o\ $end
$var wire 1 i! \s_counter[23]~76\ $end
$var wire 1 j! \s_counter[24]~77_combout\ $end
$var wire 1 k! \s_counter[24]~78\ $end
$var wire 1 l! \s_counter[25]~79_combout\ $end
$var wire 1 m! \clkout~15_combout\ $end
$var wire 1 n! \k[27]~input_o\ $end
$var wire 1 o! \k[28]~input_o\ $end
$var wire 1 p! \s_counter[25]~80\ $end
$var wire 1 q! \s_counter[26]~81_combout\ $end
$var wire 1 r! \s_counter[26]~82\ $end
$var wire 1 s! \s_counter[27]~83_combout\ $end
$var wire 1 t! \clkout~16_combout\ $end
$var wire 1 u! \k[29]~input_o\ $end
$var wire 1 v! \k[30]~input_o\ $end
$var wire 1 w! \s_counter[27]~84\ $end
$var wire 1 x! \s_counter[28]~85_combout\ $end
$var wire 1 y! \s_counter[28]~86\ $end
$var wire 1 z! \s_counter[29]~87_combout\ $end
$var wire 1 {! \clkout~17_combout\ $end
$var wire 1 |! \k[31]~input_o\ $end
$var wire 1 }! \s_counter[29]~88\ $end
$var wire 1 ~! \s_counter[30]~89_combout\ $end
$var wire 1 !" \s_counter[30]~90\ $end
$var wire 1 "" \s_counter[31]~91_combout\ $end
$var wire 1 #" \clkout~18_combout\ $end
$var wire 1 $" \clkout~19_combout\ $end
$var wire 1 %" \clkout~20_combout\ $end
$var wire 1 &" \k[0]~input_o\ $end
$var wire 1 '" \Add0~1\ $end
$var wire 1 (" \Add0~2_combout\ $end
$var wire 1 )" \Add0~0_combout\ $end
$var wire 1 *" \Equal1~0_combout\ $end
$var wire 1 +" \Add0~3\ $end
$var wire 1 ," \Add0~5\ $end
$var wire 1 -" \Add0~6_combout\ $end
$var wire 1 ." \Add0~4_combout\ $end
$var wire 1 /" \Equal1~1_combout\ $end
$var wire 1 0" \Add0~7\ $end
$var wire 1 1" \Add0~9\ $end
$var wire 1 2" \Add0~10_combout\ $end
$var wire 1 3" \Add0~8_combout\ $end
$var wire 1 4" \Equal1~2_combout\ $end
$var wire 1 5" \Add0~11\ $end
$var wire 1 6" \Add0~13\ $end
$var wire 1 7" \Add0~14_combout\ $end
$var wire 1 8" \Add0~12_combout\ $end
$var wire 1 9" \Equal1~3_combout\ $end
$var wire 1 :" \Equal1~4_combout\ $end
$var wire 1 ;" \Add0~15\ $end
$var wire 1 <" \Add0~17\ $end
$var wire 1 =" \Add0~18_combout\ $end
$var wire 1 >" \Add0~16_combout\ $end
$var wire 1 ?" \Equal1~5_combout\ $end
$var wire 1 @" \Add0~19\ $end
$var wire 1 A" \Add0~21\ $end
$var wire 1 B" \Add0~22_combout\ $end
$var wire 1 C" \Add0~20_combout\ $end
$var wire 1 D" \Equal1~6_combout\ $end
$var wire 1 E" \Add0~23\ $end
$var wire 1 F" \Add0~25\ $end
$var wire 1 G" \Add0~26_combout\ $end
$var wire 1 H" \Add0~24_combout\ $end
$var wire 1 I" \Equal1~7_combout\ $end
$var wire 1 J" \Add0~27\ $end
$var wire 1 K" \Add0~29\ $end
$var wire 1 L" \Add0~30_combout\ $end
$var wire 1 M" \Add0~28_combout\ $end
$var wire 1 N" \Equal1~8_combout\ $end
$var wire 1 O" \Equal1~9_combout\ $end
$var wire 1 P" \Equal1~10_combout\ $end
$var wire 1 Q" \Add0~31\ $end
$var wire 1 R" \Add0~33\ $end
$var wire 1 S" \Add0~34_combout\ $end
$var wire 1 T" \Add0~32_combout\ $end
$var wire 1 U" \Equal1~11_combout\ $end
$var wire 1 V" \Add0~35\ $end
$var wire 1 W" \Add0~37\ $end
$var wire 1 X" \Add0~38_combout\ $end
$var wire 1 Y" \Add0~36_combout\ $end
$var wire 1 Z" \Equal1~12_combout\ $end
$var wire 1 [" \Add0~39\ $end
$var wire 1 \" \Add0~41\ $end
$var wire 1 ]" \Add0~42_combout\ $end
$var wire 1 ^" \Add0~40_combout\ $end
$var wire 1 _" \Equal1~13_combout\ $end
$var wire 1 `" \Add0~43\ $end
$var wire 1 a" \Add0~45\ $end
$var wire 1 b" \Add0~46_combout\ $end
$var wire 1 c" \Add0~44_combout\ $end
$var wire 1 d" \Equal1~14_combout\ $end
$var wire 1 e" \Equal1~15_combout\ $end
$var wire 1 f" \Add0~47\ $end
$var wire 1 g" \Add0~49\ $end
$var wire 1 h" \Add0~50_combout\ $end
$var wire 1 i" \Add0~48_combout\ $end
$var wire 1 j" \Equal1~16_combout\ $end
$var wire 1 k" \Add0~51\ $end
$var wire 1 l" \Add0~53\ $end
$var wire 1 m" \Add0~54_combout\ $end
$var wire 1 n" \Add0~52_combout\ $end
$var wire 1 o" \Equal1~17_combout\ $end
$var wire 1 p" \Add0~55\ $end
$var wire 1 q" \Add0~57\ $end
$var wire 1 r" \Add0~58_combout\ $end
$var wire 1 s" \Add0~56_combout\ $end
$var wire 1 t" \Equal1~18_combout\ $end
$var wire 1 u" \Add0~59\ $end
$var wire 1 v" \Add0~61\ $end
$var wire 1 w" \Add0~62_combout\ $end
$var wire 1 x" \Add0~60_combout\ $end
$var wire 1 y" \Equal1~19_combout\ $end
$var wire 1 z" \Equal1~20_combout\ $end
$var wire 1 {" \clkout~21_combout\ $end
$var wire 1 |" \clkout~reg0_q\ $end
$var wire 1 }" s_counter [31] $end
$var wire 1 ~" s_counter [30] $end
$var wire 1 !# s_counter [29] $end
$var wire 1 "# s_counter [28] $end
$var wire 1 ## s_counter [27] $end
$var wire 1 $# s_counter [26] $end
$var wire 1 %# s_counter [25] $end
$var wire 1 &# s_counter [24] $end
$var wire 1 '# s_counter [23] $end
$var wire 1 (# s_counter [22] $end
$var wire 1 )# s_counter [21] $end
$var wire 1 *# s_counter [20] $end
$var wire 1 +# s_counter [19] $end
$var wire 1 ,# s_counter [18] $end
$var wire 1 -# s_counter [17] $end
$var wire 1 .# s_counter [16] $end
$var wire 1 /# s_counter [15] $end
$var wire 1 0# s_counter [14] $end
$var wire 1 1# s_counter [13] $end
$var wire 1 2# s_counter [12] $end
$var wire 1 3# s_counter [11] $end
$var wire 1 4# s_counter [10] $end
$var wire 1 5# s_counter [9] $end
$var wire 1 6# s_counter [8] $end
$var wire 1 7# s_counter [7] $end
$var wire 1 8# s_counter [6] $end
$var wire 1 9# s_counter [5] $end
$var wire 1 :# s_counter [4] $end
$var wire 1 ;# s_counter [3] $end
$var wire 1 <# s_counter [2] $end
$var wire 1 =# s_counter [1] $end
$var wire 1 ># s_counter [0] $end
$upscope $end
$upscope $end
$enddefinitions $end
#0
$dumpvars
0!
0"
0C
1D
xE
1F
1G
1H
1I
1J
1K
0L
0m
0n
0o
1p
0q
0r
1s
0t
1u
0v
0w
0x
1y
0z
0{
0|
0}
0~
0!!
1"!
0#!
1$!
0%!
0&!
0'!
0(!
1)!
0*!
1+!
0,!
0-!
0.!
0/!
00!
11!
02!
13!
04!
05!
06!
07!
18!
09!
1:!
0;!
0<!
0=!
0>!
1?!
0@!
1A!
0B!
0C!
0D!
0E!
1F!
0G!
1H!
1I!
0J!
0K!
0L!
0M!
1N!
0O!
1P!
0Q!
0R!
0S!
0T!
1U!
0V!
1W!
0X!
0Y!
0Z!
0[!
1\!
0]!
1^!
0_!
0`!
0a!
0b!
1c!
0d!
1e!
1f!
0g!
0h!
0i!
0j!
1k!
0l!
1m!
0n!
0o!
0p!
0q!
1r!
0s!
1t!
0u!
0v!
0w!
0x!
1y!
0z!
1{!
0|!
0}!
0~!
1!"
0""
1#"
1$"
0%"
0&"
0'"
0("
1)"
0*"
0+"
1,"
1-"
0."
0/"
00"
11"
02"
03"
14"
05"
16"
07"
08"
19"
0:"
0;"
1<"
0="
0>"
1?"
0@"
1A"
0B"
0C"
1D"
0E"
1F"
0G"
0H"
1I"
0J"
1K"
0L"
0M"
0N"
1O"
0P"
0Q"
1R"
0S"
0T"
1U"
0V"
1W"
0X"
0Y"
1Z"
0["
1\"
0]"
0^"
1_"
0`"
1a"
0b"
0c"
1d"
1e"
0f"
1g"
0h"
0i"
1j"
0k"
1l"
0m"
0n"
1o"
0p"
1q"
0r"
0s"
1t"
0u"
1v"
0w"
0x"
1y"
1z"
0{"
0|"
0#
0$
0%
0&
0'
0(
0)
0*
0+
0,
0-
0.
0/
00
01
02
03
04
05
06
07
08
09
0:
0;
0<
0=
0>
1?
0@
1A
0B
0M
0N
0O
0P
0Q
0R
0S
0T
0U
0V
0W
0X
0Y
0Z
0[
0\
0]
0^
0_
0`
0a
0b
0c
0d
0e
0f
0g
0h
1i
0j
1k
0l
0}"
0~"
0!#
0"#
0##
0$#
0%#
0&#
0'#
0(#
0)#
0*#
0+#
0,#
0-#
0.#
0/#
00#
01#
02#
03#
04#
05#
06#
07#
08#
09#
0:#
0;#
0<#
0=#
0>#
$end
#10000
1!
1L
1o
1>#
0p
1r
1t
1*"
#20000
0!
0L
0o
#30000
1!
1L
1o
0>#
1=#
1p
0t
0*"
#40000
0!
0L
0o
#50000
1!
1L
1o
1>#
0p
0r
1w
1x
#60000
0!
0L
0o
#70000
1!
1L
1o
0>#
0=#
1<#
0x
0y
1{
1p
0w
1x
1y
1z
0z
#80000
0!
0L
0o
#90000
1!
1L
1o
1>#
0p
1r
1t
1*"
1,!
1%"
1{"
#100000
0!
0L
0o
#110000
1!
1L
1o
0>#
1=#
1|"
1p
0t
0*"
0,!
1n
1m
1"
#120000
0!
0L
0o
#130000
1!
1L
1o
1>#
0p
0r
1w
0x
0y
1z
#140000
0!
0L
0o
#150000
1!
1L
1o
0>#
0=#
0<#
1;#
0z
1~
1x
1y
0{
1/"
1p
0w
0x
1z
0~
1!!
0!!
#160000
0!
0L
0o
#170000
1!
1L
1o
1>#
0p
1r
1t
1*"
1:"
1P"
0{"
#180000
0!
0L
0o
#190000
1!
1L
1o
0>#
1=#
0|"
0%"
1p
0t
0*"
0:"
0n
0P"
0m
0"
#200000
0!
0L
0o
#210000
1!
1L
1o
1>#
0p
0r
1w
1x
#220000
0!
0L
0o
#230000
1!
1L
1o
0>#
0=#
1<#
0x
0y
0/"
1p
0w
1x
1y
0z
1~
1!!
1z
0~
0!!
#240000
0!
0L
0o
#250000
1!
1L
1o
1>#
0p
1r
1t
1*"
#260000
0!
0L
0o
#270000
1!
1L
1o
0>#
1=#
1p
0t
0*"
#280000
0!
0L
0o
#290000
1!
1L
1o
1>#
0p
0r
1w
0x
0y
0z
1~
1!!
#300000
0!
0L
0o
#310000
1!
1L
1o
0>#
0=#
0<#
0;#
1:#
0!!
0"!
0$!
04"
1z
0~
1x
1y
1p
0w
0x
0z
1!!
1"!
1#!
0#!
#320000
0!
0L
0o
#330000
1!
1L
1o
1>#
0p
1r
1t
1*"
#340000
0!
0L
0o
#350000
1!
1L
1o
0>#
1=#
1p
0t
0*"
#360000
0!
0L
0o
#370000
1!
1L
1o
1>#
0p
0r
1w
1x
#380000
0!
0L
0o
#390000
1!
1L
1o
0>#
0=#
1<#
0x
0y
1{
1p
0w
1x
1y
1z
0z
#400000
0!
0L
0o
#410000
1!
1L
1o
1>#
0p
1r
1t
1*"
#420000
0!
0L
0o
#430000
1!
1L
1o
0>#
1=#
1p
0t
0*"
#440000
0!
0L
0o
#450000
1!
1L
1o
1>#
0p
0r
1w
0x
0y
1z
#460000
0!
0L
0o
#470000
1!
1L
1o
0>#
0=#
0<#
1;#
0z
1~
1x
1y
0{
1/"
1p
0w
0x
1z
0~
0!!
0"!
1#!
1!!
1"!
0#!
#480000
0!
0L
0o
#490000
1!
1L
1o
1>#
0p
1r
1t
1*"
#500000
0!
0L
0o
#510000
1!
1L
1o
0>#
1=#
1p
0t
0*"
#520000
0!
0L
0o
#530000
1!
1L
1o
1>#
0p
0r
1w
1x
#540000
0!
0L
0o
#550000
1!
1L
1o
0>#
0=#
1<#
0x
0y
0/"
1p
0w
1x
1y
0z
1~
0!!
0"!
1z
0~
1!!
1"!
1#!
0#!
#560000
0!
0L
0o
#570000
1!
1L
1o
1>#
0p
1r
1t
1*"
#580000
0!
0L
0o
#590000
1!
1L
1o
0>#
1=#
1p
0t
0*"
#600000
0!
0L
0o
#610000
1!
1L
1o
1>#
0p
0r
1w
0x
0y
0z
1~
0!!
0"!
1#!
#620000
0!
0L
0o
#630000
1!
1L
1o
0>#
0=#
0<#
0;#
0:#
19#
0#!
1'!
1!!
1"!
1z
0~
1x
1y
1p
0w
0x
0z
0!!
1#!
0'!
1(!
0(!
#640000
0!
0L
0o
#650000
1!
1L
1o
1>#
0p
1r
1t
1*"
#660000
0!
0L
0o
#670000
1!
1L
1o
0>#
1=#
1p
0t
0*"
#680000
0!
0L
0o
#690000
1!
1L
1o
1>#
0p
0r
1w
1x
#700000
0!
0L
0o
#710000
1!
1L
1o
0>#
0=#
1<#
0x
0y
1{
1p
0w
1x
1y
1z
0z
#720000
0!
0L
0o
#730000
1!
1L
1o
1>#
0p
1r
1t
1*"
#740000
0!
0L
0o
#750000
1!
1L
1o
0>#
1=#
1p
0t
0*"
#760000
0!
0L
0o
#770000
1!
1L
1o
1>#
0p
0r
1w
0x
0y
1z
#780000
0!
0L
0o
#790000
1!
1L
1o
0>#
0=#
0<#
1;#
0z
1~
1x
1y
0{
1/"
1p
0w
0x
1z
0~
1!!
0!!
#800000
0!
0L
0o
#810000
1!
1L
1o
1>#
0p
1r
1t
1*"
#820000
0!
0L
0o
#830000
1!
1L
1o
0>#
1=#
1p
0t
0*"
#840000
0!
0L
0o
#850000
1!
1L
1o
1>#
0p
0r
1w
1x
#860000
0!
0L
0o
#870000
1!
1L
1o
0>#
0=#
1<#
0x
0y
0/"
1p
0w
1x
1y
0z
1~
1!!
1z
0~
0!!
#880000
0!
0L
0o
#890000
1!
1L
1o
1>#
0p
1r
1t
1*"
#900000
0!
0L
0o
#910000
1!
1L
1o
0>#
1=#
1p
0t
0*"
#920000
0!
0L
0o
#930000
1!
1L
1o
1>#
0p
0r
1w
0x
0y
0z
1~
1!!
#940000
0!
0L
0o
#950000
1!
1L
1o
0>#
0=#
0<#
0;#
1:#
0!!
0"!
1z
0~
1x
1y
1p
0w
0x
0z
1!!
1"!
0#!
1'!
1(!
1#!
0'!
0(!
#960000
0!
0L
0o
#970000
1!
1L
1o
1>#
0p
1r
1t
1*"
#980000
0!
0L
0o
#990000
1!
1L
1o
0>#
1=#
1p
0t
0*"
