laboratorios_de_sistemas_digitais/aula04/parte03/simulation/qsim/Counter_Demo.msim.vcd
$comment
	File created using the following command:
		vcd file Counter_Demo.msim.vcd -direction
$end
$date
	Mon Apr 11 09:52:36 2022
$end
$version
	ModelSim Version 10.5b
$end
$timescale
	1ps
$end

$scope module counterupdown4_vhd_vec_tst $end
$var wire 1 ! clock $end
$var wire 1 " count [3] $end
$var wire 1 # count [2] $end
$var wire 1 $ count [1] $end
$var wire 1 % count [0] $end
$var wire 1 & reset $end
$var wire 1 ' updow $end

$scope module i1 $end
$var wire 1 ( gnd $end
$var wire 1 ) vcc $end
$var wire 1 * unknown $end
$var wire 1 + devoe $end
$var wire 1 , devclrn $end
$var wire 1 - devpor $end
$var wire 1 . ww_devoe $end
$var wire 1 / ww_devclrn $end
$var wire 1 0 ww_devpor $end
$var wire 1 1 ww_reset $end
$var wire 1 2 ww_updow $end
$var wire 1 3 ww_clock $end
$var wire 1 4 ww_count [3] $end
$var wire 1 5 ww_count [2] $end
$var wire 1 6 ww_count [1] $end
$var wire 1 7 ww_count [0] $end
$var wire 1 8 \count[0]~output_o\ $end
$var wire 1 9 \count[1]~output_o\ $end
$var wire 1 : \count[2]~output_o\ $end
$var wire 1 ; \count[3]~output_o\ $end
$var wire 1 < \clock~input_o\ $end
$var wire 1 = \reset~input_o\ $end
$var wire 1 > \snum~3_combout\ $end
$var wire 1 ? \updow~input_o\ $end
$var wire 1 @ \snum[1]~5_cout\ $end
$var wire 1 A \snum[1]~6_combout\ $end
$var wire 1 B \snum[1]~7\ $end
$var wire 1 C \snum[2]~8_combout\ $end
$var wire 1 D \snum[2]~9\ $end
$var wire 1 E \snum[3]~10_combout\ $end
$var wire 1 F snum [3] $end
$var wire 1 G snum [2] $end
$var wire 1 H snum [1] $end
$var wire 1 I snum [0] $end
$upscope $end
$upscope $end
$enddefinitions $end
#0
$dumpvars
0!
0&
0'
0(
1)
x*
1+
1,
1-
1.
1/
10
01
02
03
08
09
0:
0;
0<
0=
1>
0?
0@
0A
1B
0C
0D
0E
04
05
06
07
0F
0G
0H
0I
0"
0#
0$
0%
$end
#10000
1!
13
1<
1I
0>
1@
1A
18
17
1%
#20000
0!
03
0<
#30000
1!
13
1<
0I
1H
0A
0B
1>
0@
1A
1B
1C
19
08
0C
16
07
0%
1$
#40000
0!
03
0<
#50000
1!
13
1<
1I
0>
1@
0A
0B
18
1C
17
1%
#60000
0!
03
0<
#70000
1!
13
1<
0I
0H
1G
0C
1D
1A
1B
1>
0@
0A
1C
0D
1E
1:
09
08
0E
15
06
07
0%
0$
1#
#80000
0!
03
0<
#90000
1!
13
1<
1I
0>
1@
1A
18
17
1%
#100000
0!
1&
03
11
1=
0<
#110000
1!
0&
13
01
0=
1<
0I
1H
0A
0B
1>
0@
1A
1B
0C
1D
19
08
1E
1C
0D
16
07
0%
1$
0E
#120000
0!
03
0<
#130000
1!
13
1<
1I
0>
1@
0A
0B
18
0C
1D
17
1%
1E
#140000
0!
1&
03
11
1=
0<
#150000
1!
13
1<
0I
0H
0G
1C
0D
1A
1B
0@
0A
0C
0E
0:
09
08
05
06
07
0%
0$
0#
#160000
0!
0&
03
01
0=
0<
1>
#170000
1!
13
1<
1I
0>
1@
1A
18
17
1%
#180000
0!
03
0<
#190000
1!
13
1<
0I
1H
0A
0B
1>
0@
1A
1B
1C
19
08
0C
16
07
0%
1$
#200000
0!
1&
03
11
1=
0<
0>
#210000
1!
13
1<
0H
0A
09
06
0$
#220000
0!
03
0<
#230000
1!
13
1<
#240000
0!
03
0<
#250000
1!
0&
13
01
0=
1<
1>
#260000
0!
03
0<
#270000
1!
13
1<
1I
0>
1@
1A
18
17
1%
#280000
0!
03
0<
#290000
1!
13
1<
0I
1H
0A
0B
1>
0@
1A
1B
1C
19
08
0C
16
07
0%
1$
#300000
0!
03
0<
#310000
1!
13
1<
1I
0>
1@
0A
0B
18
1C
17
1%
#320000
0!
03
0<
#330000
1!
13
1<
0I
0H
1G
0C
1D
1A
1B
1>
0@
0A
1C
0D
1E
1:
09
08
0E
15
06
07
0%
0$
1#
#340000
0!
03
0<
#350000
1!
13
1<
1I
0>
1@
1A
18
17
1%
#360000
0!
03
0<
#370000
1!
13
1<
0I
1H
0A
0B
1>
0@
1A
1B
0C
1D
19
08
1E
1C
0D
16
07
0%
1$
0E
#380000
0!
03
0<
#390000
1!
13
1<
1I
0>
1@
0A
0B
18
0C
1D
17
1%
1E
#400000
0!
03
0<
#410000
1!
13
1<
0I
0H
0G
1F
0E
1C
0D
1A
1B
1>
0@
0A
0C
1E
1;
0:
09
08
14
05
06
07
0%
0$
0#
1"
#420000
0!
03
0<
#430000
1!
13
1<
1I
0>
1@
1A
18
17
1%
#440000
0!
03
0<
#450000
1!
13
1<
0I
1H
0A
0B
1>
0@
1A
1B
1C
19
08
0C
16
07
0%
1$
#460000
0!
03
0<
#470000
1!
13
1<
1I
0>
1@
0A
0B
18
1C
17
1%
#480000
0!
03
0<
#490000
1!
13
1<
0I
0H
1G
0C
1D
1A
1B
1>
0@
0A
1C
0D
0E
1:
09
08
1E
15
06
07
0%
0$
1#
#500000
0!
03
0<
#510000
1!
13
1<
1I
0>
1@
1A
18
17
1%
#520000
0!
03
0<
#530000
1!
13
1<
0I
1H
0A
0B
1>
0@
1A
1B
0C
1D
19
08
0E
1C
0D
16
07
0%
1$
1E
#540000
0!
03
0<
#550000
1!
13
1<
1I
0>
1@
0A
0B
18
0C
1D
17
1%
0E
#560000
0!
03
0<
#570000
1!
13
1<
0I
0H
0G
0F
1E
1C
0D
1A
1B
1>
0@
0A
0C
0E
0;
0:
09
08
04
05
06
07
0%
0$
0#
0"
#580000
0!
03
0<
#590000
1!
13
1<
1I
0>
1@
1A
18
17
1%
#600000
0!
03
0<
#610000
1!
13
1<
0I
1H
0A
0B
1>
0@
1A
1B
1C
19
08
0C
16
07
0%
1$
#620000
0!
03
0<
#630000
1!
13
1<
1I
0>
1@
0A
0B
18
1C
17
1%
#640000
0!
03
0<
#650000
1!
13
1<
0I
0H
1G
0C
1D
1A
1B
1>
0@
0A
1C
0D
1E
1:
09
08
0E
15
06
07
0%
0$
1#
#660000
0!
03
0<
#670000
1!
13
1<
1I
0>
1@
1A
18
17
1%
#680000
0!
03
0<
#690000
1!
13
1<
0I
1H
0A
0B
1>
0@
1A
1B
0C
1D
19
08
1E
1C
0D
16
07
0%
1$
0E
#700000
0!
03
0<
#710000
1!
13
1<
1I
0>
1@
0A
0B
18
0C
1D
17
1%
1E
#720000
0!
03
0<
#730000
1!
13
1<
0I
0H
0G
1F
0E
1C
0D
1A
1B
1>
0@
0A
0C
1E
1;
0:
09
08
14
05
06
07
0%
0$
0#
1"
#740000
0!
03
0<
#750000
1!
13
1<
1I
0>
1@
1A
18
17
1%
#760000
0!
03
0<
#770000
1!
13
1<
0I
1H
0A
0B
1>
0@
1A
1B
1C
19
08
0C
16
07
0%
1$
#780000
0!
03
0<
#790000
1!
13
1<
1I
0>
1@
0A
0B
18
1C
17
1%
#800000
0!
03
0<
#810000
1!
13
1<
0I
0H
1G
0C
1D
1A
1B
1>
0@
0A
1C
0D
0E
1:
09
08
1E
15
06
07
0%
0$
1#
#820000
0!
03
0<
#830000
1!
13
1<
1I
0>
1@
1A
18
17
1%
#840000
0!
03
0<
#850000
1!
1'
13
12
1?
1<
0I
1H
0A
0B
0C
1D
0E
1E
1C
1A
1>
0@
0A
19
08
16
07
0%
1$
#860000
0!
03
0<
#870000
1!
13
1<
1I
0H
1A
1B
0>
1@
0A
0B
0C
09
18
1C
06
17
1%
0$
#880000
0!
03
0<
#890000
1!
13
1<
0I
1>
0@
1A
1B
08
0C
07
0%
#900000
0!
03
0<
#910000
1!
13
1<
1I
1H
0G
1C
0D
0A
0B
0>
1@
1A
0C
1D
0E
0:
19
18
1E
05
16
17
1%
1$
0#
#920000
0!
03
0<
#930000
1!
13
1<
0I
1>
0@
0A
08
07
0%
#940000
0!
03
0<
#950000
1!
13
1<
1I
0H
1A
1B
0>
1@
0A
0B
1C
0D
09
18
0E
0C
1D
06
17
1%
0$
1E
#960000
0!
03
0<
#970000
1!
13
1<
0I
1>
0@
1A
1B
08
1C
0D
07
0%
0E
#980000
0!
03
0<
#990000
1!
13
1<
1I
1H
1G
0F
1E
0C
1D
0A
0B
0>
1@
1A
1C
0E
0;
1:
19
18
04
15
16
17
1%
1$
1#
0"
