laboratorios_de_sistemas_digitais/aula02/parte02/simulation/qsim/Mux2_1Demo.msim.vcd
$comment
	File created using the following command:
		vcd file Mux2_1Demo.msim.vcd -direction
$end
$date
	Tue Mar 22 12:42:52 2022
$end
$version
	ModelSim Version 10.5b
$end
$timescale
	1ps
$end

$scope module mux4_1_vhd_vec_tst $end
$var wire 1 ! inpport [3] $end
$var wire 1 " inpport [2] $end
$var wire 1 # inpport [1] $end
$var wire 1 $ inpport [0] $end
$var wire 1 % outport $end
$var wire 1 & selport [1] $end
$var wire 1 ' selport [0] $end

$scope module i1 $end
$var wire 1 ( gnd $end
$var wire 1 ) vcc $end
$var wire 1 * unknown $end
$var wire 1 + devoe $end
$var wire 1 , devclrn $end
$var wire 1 - devpor $end
$var wire 1 . ww_devoe $end
$var wire 1 / ww_devclrn $end
$var wire 1 0 ww_devpor $end
$var wire 1 1 ww_selport [1] $end
$var wire 1 2 ww_selport [0] $end
$var wire 1 3 ww_inpport [3] $end
$var wire 1 4 ww_inpport [2] $end
$var wire 1 5 ww_inpport [1] $end
$var wire 1 6 ww_inpport [0] $end
$var wire 1 7 ww_outport $end
$var wire 1 8 \outport~output_o\ $end
$var wire 1 9 \inpport[2]~input_o\ $end
$var wire 1 : \selport[1]~input_o\ $end
$var wire 1 ; \inpport[1]~input_o\ $end
$var wire 1 < \selport[0]~input_o\ $end
$var wire 1 = \inpport[0]~input_o\ $end
$var wire 1 > \outport~0_combout\ $end
$var wire 1 ? \inpport[3]~input_o\ $end
$var wire 1 @ \outport~1_combout\ $end
$upscope $end
$upscope $end
$enddefinitions $end
#0
$dumpvars
0%
0(
1)
x*
1+
1,
1-
1.
1/
10
07
08
09
0:
0;
0<
0=
0>
0?
0@
0!
0"
0#
0$
0&
0'
01
02
03
04
05
06
$end
#10000
1$
16
1=
1>
1@
18
17
1%
#20000
0$
1#
06
15
1;
0=
0>
0@
08
07
0%
#30000
1$
16
1=
1>
1@
18
17
1%
#40000
0$
0#
1"
06
05
14
19
0;
0=
0>
0@
08
07
0%
#50000
1$
16
1=
1>
1@
18
17
1%
#60000
0$
1#
06
15
1;
0=
0>
0@
08
07
0%
#70000
1$
16
1=
1>
1@
18
17
1%
#80000
0$
0#
0"
1!
06
05
04
13
1?
09
0;
0=
0>
0@
08
07
0%
#90000
1$
16
1=
1>
1@
18
17
1%
#100000
0$
1#
06
15
1;
0=
0>
0@
08
07
0%
#110000
1$
16
1=
1>
1@
18
17
1%
#120000
0$
0#
1"
06
05
14
19
0;
0=
0>
0@
08
07
0%
#130000
1$
16
1=
1>
1@
18
17
1%
#140000
0$
1#
06
15
1;
0=
0>
0@
08
07
0%
#150000
1$
16
1=
1>
1@
18
17
1%
#160000
0$
0#
0"
0!
1'
06
05
04
03
12
1<
0?
09
0;
0=
0>
0@
08
07
0%
#170000
1$
16
1=
#180000
0$
1#
06
15
1;
0=
1>
1@
18
17
1%
#190000
1$
16
1=
#200000
0$
0#
1"
06
05
14
19
0;
0=
0>
0@
08
07
0%
#210000
1$
16
1=
#220000
0$
1#
06
15
1;
0=
1>
1@
18
17
1%
#230000
1$
16
1=
#240000
0$
0#
0"
1!
06
05
04
13
1?
09
0;
0=
0>
0@
08
07
0%
#250000
1$
16
1=
#260000
0$
1#
06
15
1;
0=
1>
1@
18
17
1%
#270000
1$
16
1=
#280000
0$
0#
1"
06
05
14
19
0;
0=
0>
0@
08
07
0%
#290000
1$
16
1=
#300000
0$
1#
06
15
1;
0=
1>
1@
18
17
1%
#310000
1$
16
1=
#320000
0$
0#
0"
0!
0'
1&
06
05
04
03
02
11
1:
0<
0?
09
0;
0=
0>
0@
08
07
0%
#330000
1$
16
1=
#340000
0$
1#
06
15
1;
0=
#350000
1$
16
1=
#360000
0$
0#
1"
06
05
14
19
0;
0=
1@
18
17
1%
#370000
1$
16
1=
#380000
0$
1#
06
15
1;
0=
#390000
1$
16
1=
#400000
0$
0#
0"
1!
06
05
04
13
1?
09
0;
0=
0@
08
07
0%
#410000
1$
16
1=
#420000
0$
1#
06
15
1;
0=
#430000
1$
16
1=
#440000
0$
0#
1"
06
05
14
19
0;
0=
1@
18
17
1%
#450000
1$
16
1=
#460000
0$
1#
06
15
1;
0=
#470000
1$
16
1=
#480000
0$
0#
0"
0!
1'
06
05
04
03
12
1<
0?
09
0;
0=
0@
1>
08
07
0%
#490000
1$
16
1=
#500000
0$
1#
06
15
1;
0=
#510000
1$
16
1=
#520000
0$
0#
1"
06
05
14
19
0;
0=
#530000
1$
16
1=
#540000
0$
1#
06
15
1;
0=
#550000
1$
16
1=
#560000
0$
0#
0"
1!
06
05
04
13
1?
09
0;
0=
1@
18
17
1%
#570000
1$
16
1=
#580000
0$
1#
06
15
1;
0=
#590000
1$
16
1=
#600000
0$
0#
1"
06
05
14
19
0;
0=
#610000
1$
16
1=
#620000
0$
1#
06
15
1;
0=
#630000
1$
16
1=
#640000
0$
0#
0"
0!
0'
0&
06
05
04
03
02
01
0:
0<
0?
09
0;
0=
0>
0@
08
07
0%
#650000
1$
16
1=
1>
1@
18
17
1%
#660000
0$
1#
06
15
1;
0=
0>
0@
08
07
0%
#670000
1$
16
1=
1>
1@
18
17
1%
#680000
0$
0#
1"
06
05
14
19
0;
0=
0>
0@
08
07
0%
#690000
1$
16
1=
1>
1@
18
17
1%
#700000
0$
1#
06
15
1;
0=
0>
0@
08
07
0%
#710000
1$
16
1=
1>
1@
18
17
1%
#720000
0$
0#
0"
1!
06
05
04
13
1?
09
0;
0=
0>
0@
08
07
0%
#730000
1$
16
1=
1>
1@
18
17
1%
#740000
0$
1#
06
15
1;
0=
0>
0@
08
07
0%
#750000
1$
16
1=
1>
1@
18
17
1%
#760000
0$
0#
1"
06
05
14
19
0;
0=
0>
0@
08
07
0%
#770000
1$
16
1=
1>
1@
18
17
1%
#780000
0$
1#
06
15
1;
0=
0>
0@
08
07
0%
#790000
1$
16
1=
1>
1@
18
17
1%
#800000
0$
0#
0"
0!
1'
06
05
04
03
12
1<
0?
09
0;
0=
0>
0@
08
07
0%
#810000
1$
16
1=
#820000
0$
1#
06
15
1;
0=
1>
1@
18
17
1%
#830000
1$
16
1=
#840000
0$
0#
1"
06
05
14
19
0;
0=
0>
0@
08
07
0%
#850000
1$
16
1=
#860000
0$
1#
06
15
1;
0=
1>
1@
18
17
1%
#870000
1$
16
1=
#880000
0$
0#
0"
1!
06
05
04
13
1?
09
0;
0=
0>
0@
08
07
0%
#890000
1$
16
1=
#900000
0$
1#
06
15
1;
0=
1>
1@
18
17
1%
#910000
1$
16
1=
#920000
0$
0#
1"
06
05
14
19
0;
0=
0>
0@
08
07
0%
#930000
1$
16
1=
#940000
0$
1#
06
15
1;
0=
1>
1@
18
17
1%
#950000
1$
16
1=
#960000
0$
0#
0"
0!
0'
1&
06
05
04
03
02
11
1:
0<
0?
09
0;
0=
0>
0@
08
07
0%
#970000
1$
16
1=
#980000
0$
1#
06
15
1;
0=
#990000
1$
16
1=
